,Time,Variable,hmi_RCSLT501_VALUE,hmi_RCSLT517A_VALUE,hmi_MFWFV510_VALUE,hmi_MRSFT510_VALUE,hmi_MRSFT512_VALUE,hmi_RCSTT423B_VALUE,hmi_MFWFV550_VALUE
2,0,0:00:00.000,78.35300000000001,54.13399999999999,96.12299999999999,1137.137,563.3430000000001,292.885,50.022
3,1,0:00:01.000,78.35300000000001,54.133,96.12299999999999,1137.137,563.344,292.885,50.022
4,2,0:00:02.000,78.35300000000001,54.133,96.12200000000001,1137.138,563.3430000000001,292.885,50.022
5,3,0:00:03.000,78.35300000000001,54.133,96.12200000000001,1137.138,563.345,292.885,50.022
6,4,0:00:04.000,78.35300000000001,54.133,96.12200000000001,1137.138,563.3330000000001,292.885,50.022
7,5,0:00:05.000,78.35300000000001,54.133,96.12299999999999,1137.138,563.3430000000001,292.885,50.022
8,6,0:00:06.000,78.35300000000001,54.133,96.12299999999999,1137.139,563.344,292.885,50.022
9,7,0:00:07.000,78.35300000000001,54.133,96.12299999999999,1137.14,563.344,292.885,50.022
10,8,0:00:08.000,78.35300000000001,54.133,96.12299999999999,1137.141,563.344,292.885,50.022
11,9,0:00:09.000,78.35300000000001,54.13399999999999,96.12299999999999,1137.142,563.344,292.885,50.022
12,10,0:00:10.000,78.35300000000001,54.13399999999999,96.12200000000001,1137.142,563.344,292.885,50.022
13,11,0:00:11.000,78.35300000000001,54.13399999999999,96.12200000000001,1137.141,563.342,292.885,50.022
14,12,0:00:12.000,78.35300000000001,54.13399999999999,96.12200000000001,1137.14,563.344,292.885,50.022
15,13,0:00:13.000,78.35300000000001,54.13399999999999,96.12200000000001,1137.137,563.342,292.885,50.022
16,14,0:00:14.000,78.35300000000001,54.13399999999999,96.12200000000001,1137.136,563.344,292.885,50.022
17,15,0:00:15.000,78.35300000000001,54.13399999999999,96.12200000000001,1137.135,563.3430000000001,292.885,50.022
18,16,0:00:16.000,78.35300000000001,54.13399999999999,96.12200000000001,1137.134,563.344,292.885,50.022
19,17,0:00:17.000,78.35300000000001,54.13399999999999,96.12200000000001,1137.135,563.344,292.885,50.022
20,18,0:00:18.000,78.35300000000001,54.13399999999999,96.12200000000001,1137.135,563.344,292.885,50.022
21,19,0:00:19.000,78.35300000000001,54.13399999999999,96.12200000000001,1137.135,563.344,292.885,50.022
22,20,0:00:20.000,78.35300000000001,54.133,96.12200000000001,1137.135,563.3430000000001,292.885,50.022
23,21,0:00:21.000,78.35300000000001,54.133,96.12200000000001,1137.136,563.344,292.885,50.022
24,22,0:00:22.000,78.35300000000001,54.133,96.12200000000001,1137.136,563.344,292.885,50.022
25,23,0:00:23.000,78.35300000000001,54.133,96.12200000000001,1137.136,563.344,292.885,50.022
26,24,0:00:24.000,78.35300000000001,54.133,96.12200000000001,1137.136,563.344,292.885,50.022
27,25,0:00:25.000,78.35300000000001,54.133,96.12200000000001,1137.136,563.344,292.885,50.022
28,26,0:00:26.000,78.35300000000001,54.133,96.12200000000001,1137.136,563.344,292.885,50.022
29,27,0:00:27.000,78.35300000000001,54.133,96.12200000000001,1137.136,563.3430000000001,292.885,50.022
30,28,0:00:28.000,78.35300000000001,54.133,96.12200000000001,1137.136,563.344,292.885,50.022
31,29,0:00:29.000,78.35300000000001,54.133,96.12200000000001,1137.137,563.3430000000001,292.885,50.022
32,30,0:00:30.000,78.35300000000001,54.133,96.12200000000001,1137.137,563.3430000000001,292.885,50.022
33,31,0:00:31.000,78.35300000000001,54.133,96.12200000000001,1137.137,563.344,292.885,50.022
34,32,0:00:32.000,78.35300000000001,54.133,96.12200000000001,1137.137,563.341,292.885,50.022
35,33,0:00:33.000,78.35300000000001,54.133,96.12200000000001,1137.138,563.344,292.885,50.022
36,34,0:00:34.000,78.35300000000001,54.133,96.12200000000001,1137.138,563.346,292.885,50.022
37,35,0:00:35.000,78.35300000000001,54.133,96.12200000000001,1137.138,563.346,292.885,50.022
38,36,0:00:36.000,78.35300000000001,54.133,96.12200000000001,1137.138,563.346,292.885,50.022
39,37,0:00:37.000,78.35300000000001,54.133,96.12200000000001,1137.138,563.3430000000001,292.885,50.022
40,38,0:00:38.000,78.35300000000001,54.133,96.12200000000001,1137.138,563.342,292.885,50.022
41,39,0:00:39.000,78.35300000000001,54.133,96.12200000000001,1137.138,563.341,292.885,50.022
42,40,0:00:40.000,78.35300000000001,54.133,96.12200000000001,1137.138,563.344,292.885,50.022
43,41,0:00:41.000,78.35300000000001,54.133,96.12200000000001,1137.139,563.3430000000001,292.885,50.022
44,42,0:00:42.000,78.35300000000001,54.133,96.12200000000001,1137.139,563.332,292.885,50.022
45,43,0:00:43.000,78.35300000000001,54.133,96.12299999999999,1137.139,563.34,292.885,50.022
46,44,0:00:44.000,78.35300000000001,54.133,96.12299999999999,1137.139,563.346,292.885,50.022
47,45,0:00:45.000,78.35300000000001,54.133,96.12299999999999,1137.14,563.3430000000001,292.885,50.022
48,46,0:00:46.000,78.35300000000001,54.133,96.12299999999999,1137.141,563.344,292.885,50.022
49,47,0:00:47.000,78.35300000000001,54.133,96.12299999999999,1137.142,563.34,292.885,50.022
50,48,0:00:48.000,78.35300000000001,54.133,96.12299999999999,1137.143,563.3430000000001,292.885,50.022
51,49,0:00:49.000,78.35300000000001,54.133,96.12299999999999,1137.143,563.34,292.885,50.022
52,50,0:00:50.000,78.35300000000001,54.133,96.12200000000001,1137.142,563.345,292.885,50.022
53,51,0:00:51.000,78.35300000000001,54.133,96.12200000000001,1137.14,563.342,292.885,50.022
54,52,0:00:52.000,78.35300000000001,54.132,96.12200000000001,1137.13,563.028,292.885,50.022
55,53,0:00:53.000,78.347,54.119,96.124,1137.059,562.265,292.885,50.022
56,54,0:00:54.000,78.337,54.097,96.13,1136.924,561.66,292.88599999999997,50.022
57,55,0:00:55.000,78.325,54.071000000000005,96.134,1136.743,561.159,292.887,50.022
58,56,0:00:56.000,78.313,54.04600000000001,96.145,1136.557,560.731,292.89,50.022
59,57,0:00:57.000,78.303,54.023999999999994,96.163,1136.4189999999999,560.347,292.894,50.022
60,58,0:00:58.000,78.295,54.006,96.18700000000001,1136.372,559.997,292.89799999999997,50.022
61,59,0:00:59.000,78.289,53.993,96.214,1136.423,559.6759999999999,292.902,50.022
62,60,0:01:00.000,78.285,53.985,96.242,1136.542,559.372,292.907,50.022
63,61,0:01:01.000,78.28399999999999,53.981,96.27,1136.675,559.0830000000001,292.91200000000003,50.022
64,62,0:01:02.000,78.283,53.98,96.294,1136.76,558.803,292.918,50.022
65,63,0:01:03.000,78.285,53.983000000000004,96.31200000000001,1136.747,558.525,292.923,50.022
66,64,0:01:04.000,78.28699999999999,53.988,96.323,1136.615,558.251,292.93,50.022
67,65,0:01:05.000,78.29,53.995,96.32600000000001,1136.361,557.976,292.936,50.022
68,66,0:01:06.000,78.294,54.003,96.319,1136.001,557.6990000000001,292.943,50.022
69,67,0:01:07.000,78.298,54.012,96.304,1135.5510000000002,557.424,292.95099999999996,50.022
70,68,0:01:08.000,78.30199999999999,54.021,96.28,1135.039,557.146,292.959,50.022
71,69,0:01:09.000,78.307,54.031000000000006,96.251,1134.485,556.864,292.967,50.022
72,70,0:01:10.000,78.311,54.041000000000004,96.215,1133.8980000000001,556.576,292.975,50.022
73,71,0:01:11.000,78.315,54.051,96.17399999999999,1133.292,556.306,292.98400000000004,50.022
74,72,0:01:12.000,78.32,54.06,96.12899999999999,1132.673,556.025,292.994,50.022
75,73,0:01:13.000,78.324,54.07,96.08200000000001,1132.0230000000001,555.736,293.003,50.022
76,74,0:01:14.000,78.328,54.07899999999999,96.03200000000001,1131.392,555.453,293.013,50.022
77,75,0:01:15.000,78.332,54.088,95.98100000000001,1130.746,555.1619999999999,293.02299999999997,50.022
78,76,0:01:16.000,78.336,54.096000000000004,95.929,1130.101,554.864,293.034,50.022
79,77,0:01:17.000,78.339,54.103,95.87799999999999,1129.461,554.554,293.04400000000004,50.022
80,78,0:01:18.000,78.343,54.111000000000004,95.829,1128.827,554.242,293.055,50.022
81,79,0:01:19.000,78.347,54.119,95.78,1128.2069999999999,553.9209999999999,293.066,50.022
82,80,0:01:20.000,78.35,54.126999999999995,95.73200000000001,1127.603,553.597,293.07599999999996,50.022
83,81,0:01:21.000,78.354,54.135,95.684,1127.012,553.276,293.087,50.022
84,82,0:01:22.000,78.358,54.143,95.63600000000001,1126.4389999999999,552.96,293.098,50.022
85,83,0:01:23.000,78.361,54.15,95.59,1125.87,552.619,293.107,50.022
86,84,0:01:24.000,78.365,54.158,95.544,1125.308,552.286,293.118,50.022
87,85,0:01:25.000,78.369,54.166000000000004,95.49799999999999,1124.744,551.945,293.128,50.022
88,86,0:01:26.000,78.373,54.173,95.45200000000001,1124.171,551.606,293.139,50.022
89,87,0:01:27.000,78.377,54.181999999999995,95.406,1123.577,551.264,293.149,50.022
90,88,0:01:28.000,78.382,54.19,95.359,1122.934,550.922,293.16,50.022
91,89,0:01:29.000,78.38600000000001,54.198,95.311,1122.265,550.568,293.17,50.022
92,90,0:01:30.000,78.39,54.207,95.262,1121.5839999999998,550.222,293.181,50.022
93,91,0:01:31.000,78.39399999999999,54.215,95.213,1120.891,549.877,293.191,50.022
94,92,0:01:32.000,78.398,54.223,95.163,1120.197,549.531,293.202,50.022
95,93,0:01:33.000,78.402,54.232,95.113,1119.503,549.1709999999999,293.212,50.022
96,94,0:01:34.000,78.406,54.24,95.06299999999999,1118.807,548.815,293.222,50.022
97,95,0:01:35.000,78.411,54.248000000000005,95.012,1118.111,548.457,293.232,50.022
98,96,0:01:36.000,78.415,54.256,94.961,1117.411,548.0980000000001,293.243,50.022
99,97,0:01:37.000,78.419,54.263999999999996,94.90899999999999,1116.715,547.73,293.253,50.022
100,98,0:01:38.000,78.423,54.272,94.85700000000001,1116.017,547.367,293.263,50.022
101,99,0:01:39.000,78.42699999999999,54.281000000000006,94.804,1115.319,547.005,293.27299999999997,50.022
102,100,0:01:40.000,78.431,54.288999999999994,94.751,1114.618,546.64,293.283,50.022
103,101,0:01:41.000,78.435,54.297,94.697,1113.914,546.279,293.293,50.022
104,102,0:01:42.000,78.44,54.306000000000004,94.64299999999999,1113.2060000000001,545.9169999999999,293.302,50.022
105,103,0:01:43.000,78.444,54.31399999999999,94.589,1112.495,545.569,293.312,50.022
106,104,0:01:44.000,78.44800000000001,54.321999999999996,94.535,1111.78,545.205,293.322,50.022
107,105,0:01:45.000,78.452,54.33,94.48,1111.0639999999999,544.835,293.332,50.022
108,106,0:01:46.000,78.456,54.338,94.425,1110.3410000000001,544.472,293.342,50.022
109,107,0:01:47.000,78.46,54.346000000000004,94.37,1109.617,544.11,293.35200000000003,50.022
110,108,0:01:48.000,78.464,54.354,94.314,1108.891,543.729,293.362,50.022
111,109,0:01:49.000,78.468,54.361999999999995,94.257,1108.164,543.378,293.372,50.022
112,110,0:01:50.000,78.471,54.369,94.2,1107.437,543.011,293.382,50.022
113,111,0:01:51.000,78.475,54.376999999999995,94.14299999999999,1106.712,542.628,293.39099999999996,50.022
114,112,0:01:52.000,78.479,54.385,94.086,1105.989,542.261,293.401,50.022
115,113,0:01:53.000,78.483,54.391999999999996,94.03,1105.265,541.882,293.411,50.022
116,114,0:01:54.000,78.487,54.4,93.973,1104.547,541.506,293.42,50.022
117,115,0:01:55.000,78.491,54.408,93.916,1103.828,541.137,293.43,50.022
118,116,0:01:56.000,78.495,54.415,93.85799999999999,1103.106,540.755,293.439,50.022
119,117,0:01:57.000,78.499,54.423,93.8,1102.38,540.379,293.449,50.022
120,118,0:01:58.000,78.503,54.431000000000004,93.741,1101.6480000000001,539.994,293.45799999999997,50.022
121,119,0:01:59.000,78.506,54.43899999999999,93.681,1100.912,539.609,293.467,50.022
122,120,0:02:00.000,78.51,54.446999999999996,93.62100000000001,1100.17,539.224,293.476,50.022
123,121,0:02:01.000,78.514,54.455,93.56,1099.4260000000002,538.836,293.48400000000004,50.022
124,122,0:02:02.000,78.518,54.463,93.499,1098.683,538.455,293.493,50.022
125,123,0:02:03.000,78.52199999999999,54.471000000000004,93.43700000000001,1097.935,538.058,293.501,50.022
126,124,0:02:04.000,78.527,54.479,93.374,1097.185,537.6709999999999,293.51,50.022
127,125,0:02:05.000,78.531,54.486999999999995,93.311,1096.4360000000001,537.28,293.518,50.022
128,126,0:02:06.000,78.535,54.496,93.24799999999999,1095.674,536.899,293.526,50.022
129,127,0:02:07.000,78.539,54.504,93.185,1094.91,536.5169999999999,293.534,50.022
130,128,0:02:08.000,78.544,54.513000000000005,93.12,1094.134,536.132,293.54200000000003,50.022
131,129,0:02:09.000,78.548,54.521,93.054,1093.347,535.76,293.55,50.022
132,130,0:02:10.000,78.553,54.531000000000006,92.98700000000001,1092.567,535.309,293.558,50.022
133,131,0:02:11.000,78.557,54.538999999999994,92.92,1091.747,535.01,293.567,50.022
134,132,0:02:12.000,78.56,54.54600000000001,92.851,1090.928,534.635,293.575,50.022
135,133,0:02:13.000,78.564,54.553000000000004,92.78299999999999,1090.109,534.258,293.584,50.022
136,134,0:02:14.000,78.567,54.559,92.715,1089.286,533.89,293.593,50.022
137,135,0:02:15.000,78.57,54.566,92.648,1088.473,533.508,293.601,50.022
138,136,0:02:16.000,78.574,54.571999999999996,92.58200000000001,1087.675,533.123,293.61,50.022
139,137,0:02:17.000,78.577,54.57899999999999,92.51700000000001,1086.893,532.751,293.619,50.022
140,138,0:02:18.000,78.58,54.585,92.45200000000001,1086.122,532.367,293.628,50.022
141,139,0:02:19.000,78.583,54.591,92.387,1085.359,531.993,293.63599999999997,50.022
142,140,0:02:20.000,78.586,54.597,92.323,1084.601,531.613,293.645,50.022
143,141,0:02:21.000,78.589,54.603,92.259,1083.849,531.23,293.653,50.022
144,142,0:02:22.000,78.592,54.608999999999995,92.195,1083.089,530.8380000000001,293.66200000000003,50.022
145,143,0:02:23.000,78.595,54.615,92.131,1082.336,530.4590000000001,293.671,50.022
146,144,0:02:24.000,78.598,54.622,92.06700000000001,1081.578,530.064,293.67900000000003,50.022
147,145,0:02:25.000,78.601,54.628,92.00299999999999,1080.819,529.663,293.687,50.022
148,146,0:02:26.000,78.605,54.63399999999999,91.94,1080.058,529.285,293.695,50.022
149,147,0:02:27.000,78.608,54.64,91.87700000000001,1079.2939999999999,528.889,293.703,50.022
150,148,0:02:28.000,78.611,54.647,91.81200000000001,1078.525,528.496,293.711,50.022
151,149,0:02:29.000,78.61399999999999,54.653,91.74799999999999,1077.753,528.102,293.719,50.022
152,150,0:02:30.000,78.617,54.66,91.682,1076.96,527.707,293.72700000000003,50.022
153,151,0:02:31.000,78.62100000000001,54.667,91.616,1076.192,527.3330000000001,293.735,50.022
154,152,0:02:32.000,78.624,54.673,91.54899999999999,1075.4,526.937,293.742,50.022
155,153,0:02:33.000,78.628,54.68,91.48100000000001,1074.593,526.538,293.75,50.022
156,154,0:02:34.000,78.631,54.68600000000001,91.413,1073.776,526.151,293.758,50.022
157,155,0:02:35.000,78.634,54.692,91.344,1072.95,525.786,293.76599999999996,50.022
158,156,0:02:36.000,78.63600000000001,54.698,91.27600000000001,1072.115,525.411,293.774,50.022
159,157,0:02:37.000,78.639,54.703,91.208,1071.279,525.044,293.783,50.022
160,158,0:02:38.000,78.642,54.708,91.14,1070.445,524.679,293.79200000000003,50.022
161,159,0:02:39.000,78.64399999999999,54.713,91.072,1069.615,524.2769999999999,293.8,50.022
162,160,0:02:40.000,78.64699999999999,54.718,91.005,1068.797,523.879,293.809,50.022
163,161,0:02:41.000,78.649,54.723,90.93799999999999,1068.004,523.757,293.818,50.022
164,162,0:02:42.000,78.655,54.733999999999995,90.87100000000001,1067.245,523.649,293.827,50.022
165,163,0:02:43.000,78.661,54.747,90.805,1066.52,523.511,293.835,50.022
166,164,0:02:44.000,78.668,54.761,90.73700000000001,1065.8139999999999,523.33,293.843,50.022
167,165,0:02:45.000,78.675,54.775,90.667,1065.111,523.127,293.851,50.022
168,166,0:02:46.000,78.682,54.787,90.59700000000001,1064.384,522.9019999999999,293.858,50.022
169,167,0:02:47.000,78.687,54.798,90.525,1063.63,522.6669999999999,293.865,50.022
170,168,0:02:48.000,78.692,54.806999999999995,90.45299999999999,1062.8410000000001,522.409,293.872,50.022
171,169,0:02:49.000,78.695,54.815,90.38,1062.032,522.156,293.879,50.022
172,170,0:02:50.000,78.69800000000001,54.821000000000005,90.307,1061.2160000000001,521.891,293.88599999999997,50.022
173,171,0:02:51.000,78.70100000000001,54.825,90.236,1060.43,521.62,293.892,50.022
174,172,0:02:52.000,78.702,54.828,90.166,1059.625,521.337,293.89799999999997,50.022
175,173,0:02:53.000,78.703,54.831,90.1,1058.87,521.053,293.904,50.022
176,174,0:02:54.000,78.704,54.832,90.036,1058.178,520.77,293.91,50.022
177,175,0:02:55.000,78.704,54.833,89.976,1057.53,520.485,293.916,50.022
178,176,0:02:56.000,78.705,54.833,89.91799999999999,1056.912,520.2,293.921,50.022
179,177,0:02:57.000,78.705,54.833999999999996,89.86399999999999,1056.3110000000001,519.923,293.926,50.022
180,178,0:02:58.000,78.705,54.833999999999996,89.81200000000001,1055.723,519.643,293.931,50.022
181,179,0:02:59.000,78.704,54.833,89.762,1055.138,519.37,293.936,50.022
182,180,0:03:00.000,78.704,54.832,89.715,1054.5610000000001,519.095,293.942,50.022
183,181,0:03:01.000,78.704,54.831,89.66799999999999,1053.988,518.8240000000001,293.947,50.022
184,182,0:03:02.000,78.703,54.83,89.624,1053.42,518.5459999999999,293.953,50.022
185,183,0:03:03.000,78.702,54.82899999999999,89.581,1052.86,518.2769999999999,293.95799999999997,50.022
186,184,0:03:04.000,78.702,54.828,89.538,1052.31,518.004,293.964,50.022
187,185,0:03:05.000,78.70100000000001,54.826,89.49700000000001,1051.771,517.7230000000001,293.969,50.022
188,186,0:03:06.000,78.7,54.824,89.456,1051.242,517.444,293.974,50.022
189,187,0:03:07.000,78.699,54.823,89.415,1050.725,517.18,293.98,50.022
190,188,0:03:08.000,78.699,54.821999999999996,89.375,1050.215,516.9019999999999,293.985,50.022
191,189,0:03:09.000,78.69800000000001,54.821000000000005,89.334,1049.71,516.626,293.99,50.022
192,190,0:03:10.000,78.69800000000001,54.82,89.29299999999999,1049.203,516.347,293.995,50.022
193,191,0:03:11.000,78.697,54.818999999999996,89.25299999999999,1048.694,516.068,294.0,50.022
194,192,0:03:12.000,78.697,54.818000000000005,89.211,1048.183,515.776,294.005,50.022
195,193,0:03:13.000,78.696,54.817,89.17,1047.667,515.501,294.01,50.022
196,194,0:03:14.000,78.696,54.816,89.12799999999999,1047.15,515.2080000000001,294.015,50.022
197,195,0:03:15.000,78.696,54.816,89.086,1046.632,514.927,294.02,50.022
198,196,0:03:16.000,78.696,54.815,89.04299999999999,1046.113,514.638,294.024,50.022
199,197,0:03:17.000,78.695,54.815,88.999,1045.5910000000001,514.349,294.029,50.022
200,198,0:03:18.000,78.695,54.815,88.955,1045.068,514.0509999999999,294.033,50.022
201,199,0:03:19.000,78.695,54.815,88.90899999999999,1044.5410000000002,513.765,294.038,50.022
202,200,0:03:20.000,78.695,54.815,88.863,1044.007,513.475,294.04200000000003,50.022
203,201,0:03:21.000,78.696,54.815,88.816,1043.4669999999999,513.186,294.046,50.022
204,202,0:03:22.000,78.696,54.816,88.76899999999999,1042.914,512.9019999999999,294.05,50.022
205,203,0:03:23.000,78.696,54.816,88.721,1042.348,512.621,294.05400000000003,50.022
206,204,0:03:24.000,78.696,54.817,88.67200000000001,1041.7730000000001,512.341,294.059,50.022
207,205,0:03:25.000,78.696,54.817,88.62299999999999,1041.19,512.066,294.063,50.022
208,206,0:03:26.000,78.696,54.817,88.574,1040.599,511.787,294.068,50.022
209,207,0:03:27.000,78.696,54.817,88.524,1040.003,511.51099999999997,294.073,50.022
210,208,0:03:28.000,78.696,54.816,88.475,1039.406,511.233,294.078,50.022
211,209,0:03:29.000,78.696,54.816,88.425,1038.807,510.958,294.08299999999997,50.022
212,210,0:03:30.000,78.696,54.815,88.375,1038.212,510.67900000000003,294.08799999999997,50.022
213,211,0:03:31.000,78.695,54.815,88.32600000000001,1037.62,510.401,294.093,50.022
214,212,0:03:32.000,78.695,54.81399999999999,88.27799999999999,1037.0339999999999,510.116,294.099,50.022
215,213,0:03:33.000,78.694,54.813,88.23100000000001,1036.452,509.84,294.10400000000004,50.022
216,214,0:03:34.000,78.694,54.812,88.185,1035.876,509.561,294.10900000000004,50.022
217,215,0:03:35.000,78.693,54.81100000000001,88.139,1035.3039999999999,509.28,294.11400000000003,50.022
218,216,0:03:36.000,78.693,54.81,88.094,1034.731,508.99300000000005,294.119,50.022
219,217,0:03:37.000,78.692,54.809,88.04899999999999,1034.161,508.713,294.124,50.022
220,218,0:03:38.000,78.692,54.808,88.00399999999999,1033.5919999999999,508.42400000000004,294.13,50.022
221,219,0:03:39.000,78.691,54.806999999999995,87.96,1033.024,508.13800000000003,294.135,50.022
222,220,0:03:40.000,78.691,54.805,87.916,1032.453,507.846,294.14,50.022
223,221,0:03:41.000,78.69,54.803999999999995,87.87200000000001,1031.888,507.559,294.145,50.022
224,222,0:03:42.000,78.689,54.803000000000004,87.829,1031.323,507.26300000000003,294.15,50.022
225,223,0:03:43.000,78.689,54.802,87.786,1030.756,506.977,294.155,50.022
226,224,0:03:44.000,78.688,54.801,87.744,1030.191,506.67699999999996,294.16,50.022
227,225,0:03:45.000,78.688,54.8,87.70100000000001,1029.625,506.38699999999994,294.165,50.022
228,226,0:03:46.000,78.687,54.799,87.65799999999999,1029.052,506.09,294.17,50.022
229,227,0:03:47.000,78.687,54.798,87.61399999999999,1028.476,505.80800000000005,294.17400000000004,50.022
230,228,0:03:48.000,78.687,54.798,87.571,1027.895,505.519,294.17900000000003,50.022
231,229,0:03:49.000,78.686,54.797,87.529,1027.299,505.23800000000006,294.184,50.022
232,230,0:03:50.000,78.686,54.795,87.486,1026.72,504.95599999999996,294.19,50.022
233,231,0:03:51.000,78.685,54.794,87.443,1026.126,504.67800000000005,294.195,50.022
234,232,0:03:52.000,78.684,54.793,87.4,1025.53,504.394,294.20099999999996,50.022
235,233,0:03:53.000,78.683,54.791000000000004,87.35700000000001,1024.938,504.11800000000005,294.20599999999996,50.022
236,234,0:03:54.000,78.683,54.788999999999994,87.315,1024.351,503.83,294.212,50.022
237,235,0:03:55.000,78.682,54.788000000000004,87.273,1023.773,503.55,294.218,50.022
238,236,0:03:56.000,78.681,54.786,87.23100000000001,1023.204,503.26199999999994,294.224,50.022
239,237,0:03:57.000,78.68,54.784,87.19,1022.6439999999999,502.97900000000004,294.23,50.022
240,238,0:03:58.000,78.679,54.782,87.149,1022.092,502.69699999999995,294.236,50.022
241,239,0:03:59.000,78.678,54.78,87.109,1021.546,502.411,294.242,50.022
242,240,0:04:00.000,78.67699999999999,54.778999999999996,87.07,1021.003,502.124,294.248,50.022
243,241,0:04:01.000,78.676,54.777,87.031,1020.461,501.832,294.254,50.022
244,242,0:04:02.000,78.675,54.775,86.992,1019.9169999999999,501.545,294.26,50.022
245,243,0:04:03.000,78.675,54.773999999999994,86.95299999999999,1019.3739999999999,501.259,294.265,50.022
246,244,0:04:04.000,78.67399999999999,54.772,86.913,1018.83,500.98,294.27099999999996,50.022
247,245,0:04:05.000,78.673,54.771,86.874,1018.2819999999999,500.667,294.277,50.022
248,246,0:04:06.000,78.673,54.769,86.834,1017.732,500.435,294.283,50.022
249,247,0:04:07.000,78.672,54.768,86.794,1017.178,500.077,294.289,50.022
250,248,0:04:08.000,78.671,54.766999999999996,86.75399999999999,1016.6189999999999,499.778,294.295,50.022
251,249,0:04:09.000,78.671,54.766000000000005,86.713,1016.056,499.47900000000004,294.301,50.022
252,250,0:04:10.000,78.67,54.765,86.67200000000001,1015.492,499.18,294.307,50.022
253,251,0:04:11.000,78.67,54.763999999999996,86.632,1014.926,498.88300000000004,294.313,50.022
254,252,0:04:12.000,78.669,54.763000000000005,86.59100000000001,1014.355,498.586,294.319,50.022
255,253,0:04:13.000,78.669,54.762,86.54899999999999,1013.778,498.30300000000005,294.325,50.022
256,254,0:04:14.000,78.669,54.762,86.507,1013.192,498.014,294.33099999999996,50.022
257,255,0:04:15.000,78.668,54.761,86.465,1012.5980000000001,497.727,294.33799999999997,50.022
258,256,0:04:16.000,78.668,54.76,86.42200000000001,1011.9939999999999,497.44,294.344,50.022
259,257,0:04:17.000,78.667,54.75899999999999,86.37899999999999,1011.387,497.157,294.351,50.022
260,258,0:04:18.000,78.666,54.757,86.336,1010.7810000000001,496.86699999999996,294.358,50.022
261,259,0:04:19.000,78.666,54.756,86.294,1010.178,496.577,294.365,50.022
262,260,0:04:20.000,78.665,54.754,86.25200000000001,1009.582,496.286,294.372,50.022
263,261,0:04:21.000,78.664,54.751999999999995,86.211,1008.995,496.00199999999995,294.379,50.022
264,262,0:04:22.000,78.663,54.751000000000005,86.17,1008.416,495.695,294.38599999999997,50.022
265,263,0:04:23.000,78.66199999999999,54.748000000000005,86.13,1007.8489999999999,495.401,294.394,50.022
266,264,0:04:24.000,78.661,54.746,86.09100000000001,1007.29,495.094,294.401,50.022
267,265,0:04:25.000,78.65899999999999,54.743,86.052,1006.743,494.773,294.408,50.022
268,266,0:04:26.000,78.658,54.74100000000001,86.01299999999999,1006.206,494.45300000000003,294.415,50.022
269,267,0:04:27.000,78.657,54.739,85.975,1005.6669999999999,494.11699999999996,294.421,50.022
270,268,0:04:28.000,78.657,54.738,85.93700000000001,1005.15,493.788,294.427,50.022
271,269,0:04:29.000,78.656,54.736999999999995,85.898,1004.648,493.449,294.433,50.022
272,270,0:04:30.000,78.656,54.736999999999995,85.859,1004.1419999999999,493.106,294.438,50.022
273,271,0:04:31.000,78.656,54.736999999999995,85.82,1003.632,492.75800000000004,294.443,50.022
274,272,0:04:32.000,78.656,54.736999999999995,85.779,1003.112,492.405,294.447,50.022
275,273,0:04:33.000,78.657,54.738,85.73700000000001,1002.578,492.048,294.45099999999996,50.022
276,274,0:04:34.000,78.657,54.739,85.693,1002.029,491.69,294.455,50.022
277,275,0:04:35.000,78.658,54.74,85.647,1001.451,491.325,294.45799999999997,50.022
278,276,0:04:36.000,78.65899999999999,54.742,85.59899999999999,1000.8560000000001,490.955,294.461,50.022
279,277,0:04:37.000,78.66,54.744,85.54899999999999,1000.2589999999999,490.601,294.464,50.022
280,278,0:04:38.000,78.661,54.746,85.49700000000001,999.643,490.23,294.467,50.022
281,279,0:04:39.000,78.66199999999999,54.748999999999995,85.443,999.0060000000001,489.876,294.469,50.022
282,280,0:04:40.000,78.663,54.751000000000005,85.387,998.3510000000001,489.51099999999997,294.471,50.022
283,281,0:04:41.000,78.665,54.754,85.33,997.69,489.148,294.473,50.022
284,282,0:04:42.000,78.666,54.756,85.273,997.0169999999999,488.781,294.474,50.022
285,283,0:04:43.000,78.667,54.758,85.214,996.341,488.411,294.476,50.022
286,284,0:04:44.000,78.668,54.761,85.154,995.665,488.042,294.47700000000003,50.022
287,285,0:04:45.000,78.67,54.763999999999996,85.094,994.9910000000001,487.67199999999997,294.478,50.022
288,286,0:04:46.000,78.671,54.766000000000005,85.03200000000001,994.317,487.295,294.478,50.022
289,287,0:04:47.000,78.672,54.769,84.97,993.6469999999999,486.92199999999997,294.478,50.022
290,288,0:04:48.000,78.67399999999999,54.772,84.90700000000001,992.975,486.545,294.478,50.022
291,289,0:04:49.000,78.675,54.775,84.84299999999999,992.302,486.16900000000004,294.47700000000003,50.022
292,290,0:04:50.000,78.67699999999999,54.778999999999996,84.78,991.628,485.79,294.476,50.022
293,291,0:04:51.000,78.679,54.782,84.715,990.952,485.416,294.475,50.022
294,292,0:04:52.000,78.68,54.785,84.65100000000001,990.2810000000001,485.043,294.474,50.022
295,293,0:04:53.000,78.682,54.788999999999994,84.587,989.5989999999999,484.658,294.472,50.022
296,294,0:04:54.000,78.684,54.792,84.521,988.921,484.273,294.47,50.022
297,295,0:04:55.000,78.686,54.79600000000001,84.455,988.2410000000001,483.88300000000004,294.468,50.022
298,296,0:04:56.000,78.688,54.8,84.38799999999999,987.559,483.49800000000005,294.465,50.022
299,297,0:04:57.000,78.69,54.803999999999995,84.321,986.8789999999999,483.116,294.462,50.022
300,298,0:04:58.000,78.692,54.808,84.25200000000001,986.197,482.727,294.459,50.022
301,299,0:04:59.000,78.694,54.812,84.182,985.518,482.33099999999996,294.455,50.022
302,300,0:05:00.000,78.696,54.817,84.111,984.837,481.93300000000005,294.45099999999996,50.022
303,301,0:05:01.000,78.699,54.821999999999996,84.04,984.164,481.54,294.44599999999997,50.022
304,302,0:05:02.000,78.70100000000001,54.827,83.969,983.4760000000001,481.142,294.442,50.022
305,303,0:05:03.000,78.704,54.833,83.897,982.797,480.746,294.436,50.022
306,304,0:05:04.000,78.707,54.838,83.823,982.0980000000001,480.356,294.431,50.022
307,305,0:05:05.000,78.71,54.843999999999994,83.74799999999999,981.3960000000001,479.957,294.425,50.022
308,306,0:05:06.000,78.71300000000001,54.849,83.67200000000001,980.685,479.559,294.41900000000004,50.022
309,307,0:05:07.000,78.71600000000001,54.855,83.59299999999999,979.966,479.158,294.413,50.022
310,308,0:05:08.000,78.718,54.861000000000004,83.514,979.243,478.76,294.406,50.022
311,309,0:05:09.000,78.721,54.867,83.43299999999999,978.5160000000001,478.351,294.399,50.022
312,310,0:05:10.000,78.725,54.873000000000005,83.352,977.7919999999999,477.944,294.39099999999996,50.022
313,311,0:05:11.000,78.72800000000001,54.88,83.27,977.07,477.534,294.383,50.022
314,312,0:05:12.000,78.732,54.888000000000005,83.18799999999999,976.3439999999999,477.147,294.375,50.022
315,313,0:05:13.000,78.737,54.897,83.105,975.6039999999999,476.775,294.366,50.022
316,314,0:05:14.000,78.741,54.906000000000006,83.02,974.837,476.42800000000005,294.358,50.022
317,315,0:05:15.000,78.745,54.913999999999994,82.93299999999999,974.038,476.093,294.35,50.022
318,316,0:05:16.000,78.748,54.92,82.844,973.203,475.756,294.343,50.022
319,317,0:05:17.000,78.751,54.926,82.75399999999999,972.335,475.415,294.337,50.022
320,318,0:05:18.000,78.75399999999999,54.933,82.664,971.443,475.098,294.332,50.022
321,319,0:05:19.000,78.757,54.938,82.575,970.55,474.781,294.32599999999996,50.022
322,320,0:05:20.000,78.759,54.941,82.486,969.677,474.454,294.32099999999997,50.022
323,321,0:05:21.000,78.76,54.943999999999996,82.4,968.845,474.11400000000003,294.317,50.022
324,322,0:05:22.000,78.76100000000001,54.946000000000005,82.318,968.06,473.76,294.312,50.022
325,323,0:05:23.000,78.762,54.948,82.238,967.328,473.402,294.307,50.022
326,324,0:05:24.000,78.764,54.951,82.161,966.6389999999999,473.041,294.301,50.022
327,325,0:05:25.000,78.765,54.95399999999999,82.086,965.987,472.673,294.295,50.022
328,326,0:05:26.000,78.767,54.958,82.012,965.357,472.306,294.288,50.022
329,327,0:05:27.000,78.76899999999999,54.961999999999996,81.939,964.7330000000001,471.93300000000005,294.281,50.022
330,328,0:05:28.000,78.771,54.966,81.865,964.1010000000001,471.55400000000003,294.274,50.022
331,329,0:05:29.000,78.773,54.97,81.792,963.446,471.176,294.267,50.022
332,330,0:05:30.000,78.775,54.974,81.718,962.768,470.79400000000004,294.259,50.022
333,331,0:05:31.000,78.778,54.979,81.645,962.067,470.401,294.251,50.022
334,332,0:05:32.000,78.78,54.983999999999995,81.57,961.3489999999999,470.00199999999995,294.243,50.022
335,333,0:05:33.000,78.78399999999999,54.99100000000001,81.494,960.6110000000001,469.61800000000005,294.235,50.022
336,334,0:05:34.000,78.78699999999999,54.998000000000005,81.416,959.845,469.26800000000003,294.226,50.022
337,335,0:05:35.000,78.791,55.006,81.336,959.05,468.935,294.217,50.022
338,336,0:05:36.000,78.794,55.012,81.25399999999999,958.2189999999999,468.603,294.209,50.022
339,337,0:05:37.000,78.797,55.016999999999996,81.17,957.357,468.292,294.202,50.022
340,338,0:05:38.000,78.79899999999999,55.021,81.085,956.44,467.97,294.197,50.022
341,339,0:05:39.000,78.8,55.023999999999994,80.999,955.5089999999999,467.661,294.192,50.022
342,340,0:05:40.000,78.801,55.025,80.915,954.592,467.336,294.187,50.022
343,341,0:05:41.000,78.801,55.023999999999994,80.833,953.691,466.983,294.183,50.022
344,342,0:05:42.000,78.8,55.023,80.755,952.8560000000001,466.626,294.178,50.022
345,343,0:05:43.000,78.8,55.023,80.681,952.097,466.255,294.173,50.022
346,344,0:05:44.000,78.8,55.022,80.609,951.408,465.841,294.16700000000003,50.022
347,345,0:05:45.000,78.8,55.023,80.54,950.7860000000001,465.49699999999996,294.16,50.022
348,346,0:05:46.000,78.8,55.023999999999994,80.473,950.207,465.11800000000005,294.153,50.022
349,347,0:05:47.000,78.801,55.025,80.407,949.6469999999999,464.73,294.145,50.022
350,348,0:05:48.000,78.80199999999999,55.027,80.342,949.081,464.30400000000003,294.137,50.022
351,349,0:05:49.000,78.803,55.03,80.27600000000001,948.498,463.921,294.129,50.022
352,350,0:05:50.000,78.806,55.035,80.209,947.8739999999999,463.56199999999995,294.12,50.022
353,351,0:05:51.000,78.809,55.042,80.14,947.2,463.218,294.111,50.022
354,352,0:05:52.000,78.812,55.048,80.068,946.472,462.88599999999997,294.10200000000003,50.022
355,353,0:05:53.000,78.815,55.053000000000004,79.994,945.69,462.57,294.095,50.022
356,354,0:05:54.000,78.817,55.056999999999995,79.918,944.85,462.24699999999996,294.08799999999997,50.022
357,355,0:05:55.000,78.818,55.059,79.84,943.9639999999999,461.94699999999995,294.08299999999997,50.022
358,356,0:05:56.000,78.819,55.06,79.76,943.055,461.634,294.079,50.022
359,357,0:05:57.000,78.818,55.06,79.681,942.1560000000001,461.306,294.075,50.022
360,358,0:05:58.000,78.818,55.059,79.60300000000001,941.295,460.968,294.07099999999997,50.022
361,359,0:05:59.000,78.817,55.056999999999995,79.527,940.4939999999999,460.61699999999996,294.066,50.022
362,360,0:06:00.000,78.817,55.056000000000004,79.453,939.7660000000001,460.26099999999997,294.062,50.022
363,361,0:06:01.000,78.816,55.055,79.383,939.1039999999999,459.903,294.057,50.022
364,362,0:06:02.000,78.816,55.055,79.316,938.488,459.54,294.051,50.022
365,363,0:06:03.000,78.816,55.055,79.25,937.8910000000001,459.16900000000004,294.045,50.022
366,364,0:06:04.000,78.816,55.056000000000004,79.186,937.302,458.809,294.039,50.022
367,365,0:06:05.000,78.817,55.056000000000004,79.123,936.697,458.434,294.032,50.022
368,366,0:06:06.000,78.817,55.056999999999995,79.059,936.061,458.06199999999995,294.026,50.022
369,367,0:06:07.000,78.817,55.058,78.995,935.416,457.665,294.019,50.022
370,368,0:06:08.000,78.818,55.06,78.929,934.717,457.273,294.012,50.022
371,369,0:06:09.000,78.82,55.063,78.863,934.038,456.925,294.005,50.022
372,370,0:06:10.000,78.822,55.068000000000005,78.794,933.305,456.584,293.997,50.022
373,371,0:06:11.000,78.824,55.071000000000005,78.723,932.5210000000001,456.24300000000005,293.99,50.022
374,372,0:06:12.000,78.825,55.073,78.65,931.753,455.925,293.985,50.022
375,373,0:06:13.000,78.82600000000001,55.075,78.57600000000001,930.9110000000001,455.602,293.98,50.022
376,374,0:06:14.000,78.827,55.076,78.502,930.046,455.284,293.975,50.022
377,375,0:06:15.000,78.82600000000001,55.076,78.428,929.163,454.969,293.971,50.022
378,376,0:06:16.000,78.82600000000001,55.074,78.355,928.293,454.64,293.968,50.022
379,377,0:06:17.000,78.824,55.071000000000005,78.283,927.454,454.29699999999997,293.965,50.022
380,378,0:06:18.000,78.825,55.073,78.214,926.615,454.18,293.964,50.022
381,379,0:06:19.000,78.842,55.106,78.146,925.6469999999999,454.88300000000004,293.959,50.022
382,380,0:06:20.000,78.858,55.138999999999996,78.07300000000001,924.716,455.461,293.95599999999996,50.022
383,381,0:06:21.000,78.859,55.141000000000005,77.995,923.8539999999999,455.606,293.96,50.022
384,382,0:06:22.000,78.855,55.13399999999999,77.916,923.0930000000001,455.305,293.969,50.022
385,383,0:06:23.000,78.844,55.11,77.842,922.546,454.216,293.978,50.022
386,384,0:06:24.000,78.824,55.07,77.779,922.194,452.983,293.98,50.022
387,385,0:06:25.000,78.81,55.043,77.732,921.93,451.907,293.973,50.022
388,386,0:06:26.000,78.803,55.028999999999996,77.699,921.67,451.14599999999996,293.95799999999997,50.022
389,387,0:06:27.000,78.798,55.02,77.67399999999999,921.299,450.69,293.94,50.022
390,388,0:06:28.000,78.795,55.013000000000005,77.65,920.732,450.389,293.926,50.022
391,389,0:06:29.000,78.791,55.005,77.626,919.93,450.038,293.918,50.022
392,390,0:06:30.000,78.788,55.0,77.598,918.8910000000001,449.67400000000004,293.913,50.022
393,391,0:06:31.000,78.78699999999999,54.997,77.566,917.71,449.30300000000005,293.91,50.022
394,392,0:06:32.000,78.785,54.993,77.53,916.518,448.93699999999995,293.906,50.022
395,393,0:06:33.000,78.783,54.988,77.492,915.456,448.594,293.903,50.022
396,394,0:06:34.000,78.781,54.985,77.452,914.623,448.265,293.9,50.022
397,395,0:06:35.000,78.779,54.981,77.41,914.073,447.95300000000003,293.89599999999996,50.022
398,396,0:06:36.000,78.777,54.978,77.368,913.796,447.656,293.893,50.022
399,397,0:06:37.000,78.77600000000001,54.975,77.32600000000001,913.696,447.39599999999996,293.89,50.022
400,398,0:06:38.000,78.775,54.974,77.282,913.627,447.10699999999997,293.888,50.022
401,399,0:06:39.000,78.773,54.97,77.237,913.4630000000001,446.749,293.88599999999997,50.022
402,400,0:06:40.000,78.77199999999999,54.968,77.189,913.1260000000001,446.361,293.883,50.022
403,401,0:06:41.000,78.773,54.968999999999994,77.14,912.6510000000001,445.98400000000004,293.881,50.022
404,402,0:06:42.000,78.774,54.972,77.087,912.115,445.61,293.877,50.022
405,403,0:06:43.000,78.77600000000001,54.976000000000006,77.03,911.575,445.25800000000004,293.873,50.022
406,404,0:06:44.000,78.778,54.98,76.97,911.048,444.918,293.87,50.022
407,405,0:06:45.000,78.78,54.983999999999995,76.905,910.4730000000001,444.596,293.867,50.022
408,406,0:06:46.000,78.78399999999999,54.992,76.835,909.812,444.305,293.86400000000003,50.022
409,407,0:06:47.000,78.786,54.995,76.76100000000001,909.04,443.941,293.862,50.022
410,408,0:06:48.000,78.78699999999999,54.998000000000005,76.683,908.13,443.564,293.86,50.022
411,409,0:06:49.000,78.789,55.001000000000005,76.60300000000001,907.1010000000001,443.19699999999995,293.85900000000004,50.022
412,410,0:06:50.000,78.79,55.004,76.521,905.857,442.815,293.857,50.022
413,411,0:06:51.000,78.791,55.005,76.44,904.6339999999999,442.458,293.855,50.022
414,412,0:06:52.000,78.791,55.005,76.359,903.317,442.095,293.853,50.022
415,413,0:06:53.000,78.79,55.004,76.282,902.257,441.74,293.85200000000003,50.022
416,414,0:06:54.000,78.791,55.004,76.208,901.3380000000001,441.465,293.851,50.022
417,415,0:06:55.000,78.79,55.003,76.138,900.565,441.276,293.849,50.022
418,416,0:06:56.000,78.79,55.001999999999995,76.072,899.93,441.05400000000003,293.848,50.022
419,417,0:06:57.000,78.792,55.007,76.009,899.448,440.825,293.846,50.022
420,418,0:06:58.000,78.795,55.013000000000005,75.949,899.085,440.603,293.842,50.022
421,419,0:06:59.000,78.798,55.02,75.889,898.836,440.394,293.83799999999997,50.022
422,420,0:07:00.000,78.80199999999999,55.026,75.828,898.632,440.17699999999996,293.835,50.022
423,421,0:07:01.000,78.804,55.031000000000006,75.766,898.416,439.964,293.832,50.022
424,422,0:07:02.000,78.807,55.037,75.70100000000001,898.1210000000001,439.74,293.829,50.022
425,423,0:07:03.000,78.81,55.044,75.634,897.691,439.536,293.828,50.022
426,424,0:07:04.000,78.815,55.052,75.564,897.0980000000001,439.38199999999995,293.824,50.022
427,425,0:07:05.000,78.818,55.059,75.491,896.367,439.20599999999996,293.823,50.022
428,426,0:07:06.000,78.819,55.06100000000001,75.416,895.485,438.918,293.822,50.022
429,427,0:07:07.000,78.82,55.063,75.34,894.549,438.694,293.823,50.022
430,428,0:07:08.000,78.82,55.06399999999999,75.264,893.2139999999999,438.449,293.823,50.022
431,429,0:07:09.000,78.819,55.06100000000001,75.19,891.89,438.216,293.824,50.022
432,430,0:07:10.000,78.816,55.055,75.118,890.633,437.974,293.82599999999996,50.022
433,431,0:07:11.000,78.812,55.047,75.05199999999999,889.56,437.72,293.828,50.022
434,432,0:07:12.000,78.807,55.038000000000004,74.994,888.6610000000001,437.455,293.829,50.022
435,433,0:07:13.000,78.803,55.028,74.944,887.961,437.156,293.829,50.022
436,434,0:07:14.000,78.798,55.019,74.90100000000001,887.465,436.906,293.828,50.022
437,435,0:07:15.000,78.793,55.01,74.867,887.1489999999999,436.62800000000004,293.82599999999996,50.022
438,436,0:07:16.000,78.79,55.003,74.83800000000001,886.9580000000001,436.36,293.824,50.022
439,437,0:07:17.000,78.78699999999999,54.997,74.813,886.831,436.102,293.822,50.022
440,438,0:07:18.000,78.78399999999999,54.992,74.791,886.704,435.861,293.819,50.022
441,439,0:07:19.000,78.782,54.986999999999995,74.768,886.548,435.62300000000005,293.817,50.022
442,440,0:07:20.000,78.78,54.983000000000004,74.745,886.3380000000001,435.395,293.815,50.022
443,441,0:07:21.000,78.778,54.979,74.72,886.048,435.164,293.814,50.022
444,442,0:07:22.000,78.77600000000001,54.975,74.692,885.67,434.941,293.814,50.022
445,443,0:07:23.000,78.774,54.971000000000004,74.661,885.203,434.709,293.814,50.022
446,444,0:07:24.000,78.77199999999999,54.967,74.628,884.6619999999999,434.481,293.815,50.022
447,445,0:07:25.000,78.77,54.963,74.593,884.0169999999999,434.24800000000005,293.816,50.022
448,446,0:07:26.000,78.768,54.958999999999996,74.556,883.337,434.02099999999996,293.817,50.022
449,447,0:07:27.000,78.765,54.95399999999999,74.518,882.632,433.79900000000004,293.818,50.022
450,448,0:07:28.000,78.763,54.949,74.48,881.893,433.56199999999995,293.82,50.022
451,449,0:07:29.000,78.759,54.942,74.442,881.117,433.32599999999996,293.822,50.022
452,450,0:07:30.000,78.755,54.934,74.405,880.413,433.092,293.825,50.022
453,451,0:07:31.000,78.751,54.925,74.37100000000001,879.7919999999999,432.851,293.828,50.022
454,452,0:07:32.000,78.74600000000001,54.917,74.33800000000001,879.28,432.608,293.83,50.022
455,453,0:07:33.000,78.742,54.909,74.31,878.8810000000001,432.366,293.83099999999996,50.022
456,454,0:07:34.000,78.73899999999999,54.901,74.283,878.613,432.11,293.83299999999997,50.022
457,455,0:07:35.000,78.735,54.894,74.259,878.4680000000001,431.853,293.83299999999997,50.022
458,456,0:07:36.000,78.732,54.888000000000005,74.237,878.415,431.59,293.834,50.022
459,457,0:07:37.000,78.729,54.883,74.214,878.4069999999999,431.329,293.834,50.022
460,458,0:07:38.000,78.727,54.879,74.191,878.3860000000001,431.05699999999996,293.83299999999997,50.022
461,459,0:07:39.000,78.726,54.876000000000005,74.165,878.301,430.781,293.83299999999997,50.022
462,460,0:07:40.000,78.725,54.873999999999995,74.137,878.12,430.499,293.832,50.022
463,461,0:07:41.000,78.725,54.873999999999995,74.104,877.817,430.23699999999997,293.832,50.022
464,462,0:07:42.000,78.726,54.876000000000005,74.066,877.3560000000001,429.981,293.83099999999996,50.022
465,463,0:07:43.000,78.727,54.876999999999995,74.024,876.7139999999999,429.73400000000004,293.83099999999996,50.022
466,464,0:07:44.000,78.727,54.876999999999995,73.977,875.623,429.491,293.832,50.022
467,465,0:07:45.000,78.726,54.876000000000005,73.92699999999999,874.578,429.249,293.834,50.022
468,466,0:07:46.000,78.72399999999999,54.872,73.875,873.4760000000001,428.999,293.837,50.022
469,467,0:07:47.000,78.721,54.867,73.824,872.086,428.75199999999995,293.84,50.022
470,468,0:07:48.000,78.718,54.86,73.775,870.957,428.505,293.843,50.022
471,469,0:07:49.000,78.714,54.852,73.73,870.034,428.264,293.846,50.022
472,470,0:07:50.000,78.71,54.843999999999994,73.691,869.347,428.045,293.849,50.022
473,471,0:07:51.000,78.705,54.833999999999996,73.657,868.919,427.833,293.85200000000003,50.022
474,472,0:07:52.000,78.7,54.824,73.62899999999999,868.706,427.608,293.855,50.022
475,473,0:07:53.000,78.695,54.81399999999999,73.607,868.655,427.374,293.858,50.022
476,474,0:07:54.000,78.689,54.803000000000004,73.59,868.7230000000001,427.125,293.861,50.022
477,475,0:07:55.000,78.685,54.794,73.57600000000001,868.8430000000001,426.87300000000005,293.86400000000003,50.022
478,476,0:07:56.000,78.681,54.787,73.564,868.98,426.60400000000004,293.865,50.022
479,477,0:07:57.000,78.679,54.782,73.55199999999999,869.102,426.329,293.866,50.022
480,478,0:07:58.000,78.67699999999999,54.778999999999996,73.539,869.181,426.05,293.867,50.022
481,479,0:07:59.000,78.67699999999999,54.778,73.52199999999999,869.184,425.76099999999997,293.867,50.022
482,480,0:08:00.000,78.67699999999999,54.778,73.5,869.079,425.473,293.867,50.022
483,481,0:08:01.000,78.678,54.781000000000006,73.472,868.8330000000001,425.199,293.867,50.022
484,482,0:08:02.000,78.681,54.785,73.436,868.425,424.939,293.867,50.022
485,483,0:08:03.000,78.683,54.79,73.39399999999999,867.8589999999999,424.685,293.867,50.022
486,484,0:08:04.000,78.684,54.793,73.345,867.081,424.44300000000004,293.869,50.022
487,485,0:08:05.000,78.686,54.79600000000001,73.29,866.206,424.20099999999996,293.871,50.022
488,486,0:08:06.000,78.686,54.797,73.232,865.2389999999999,423.962,293.875,50.022
489,487,0:08:07.000,78.686,54.797,73.172,864.298,423.724,293.878,50.022
490,488,0:08:08.000,78.685,54.795,73.112,863.4060000000001,423.48800000000006,293.882,50.022
491,489,0:08:09.000,78.684,54.792,73.054,862.6289999999999,423.24800000000005,293.887,50.022
492,490,0:08:10.000,78.682,54.788000000000004,72.998,861.9680000000001,422.99800000000005,293.89099999999996,50.022
493,491,0:08:11.000,78.68,54.784,72.945,861.4680000000001,422.759,293.895,50.022
494,492,0:08:12.000,78.678,54.781000000000006,72.896,861.1189999999999,422.523,293.89799999999997,50.022
495,493,0:08:13.000,78.67699999999999,54.778,72.851,860.8789999999999,422.286,293.901,50.022
496,494,0:08:14.000,78.676,54.776,72.809,860.7230000000001,422.055,293.905,50.022
497,495,0:08:15.000,78.67399999999999,54.773,72.76899999999999,860.591,421.809,293.908,50.022
498,496,0:08:16.000,78.673,54.771,72.73,860.43,421.55800000000005,293.91200000000003,50.022
499,497,0:08:17.000,78.673,54.77,72.692,860.193,421.30300000000005,293.915,50.022
500,498,0:08:18.000,78.673,54.77,72.653,859.8539999999999,421.04400000000004,293.918,50.022
501,499,0:08:19.000,78.673,54.77,72.613,859.382,420.779,293.921,50.022
502,500,0:08:20.000,78.673,54.771,72.57,858.755,420.514,293.925,50.022
503,501,0:08:21.000,78.67399999999999,54.771,72.52600000000001,857.924,420.225,293.928,50.022
504,502,0:08:22.000,78.673,54.771,72.479,856.687,419.969,293.932,50.022
505,503,0:08:23.000,78.672,54.769,72.432,855.579,419.69699999999995,293.936,50.022
506,504,0:08:24.000,78.67,54.765,72.385,854.1289999999999,419.413,293.941,50.022
507,505,0:08:25.000,78.668,54.76,72.34,852.913,419.13699999999994,293.945,50.022
508,506,0:08:26.000,78.664,54.753,72.3,851.85,418.87,293.95,50.022
509,507,0:08:27.000,78.661,54.746,72.264,850.985,418.60400000000004,293.954,50.022
510,508,0:08:28.000,78.657,54.738,72.234,850.37,418.35400000000004,293.957,50.022
511,509,0:08:29.000,78.652,54.729,72.21,849.995,418.11199999999997,293.961,50.022
512,510,0:08:30.000,78.64699999999999,54.718999999999994,72.191,849.81,417.86800000000005,293.964,50.022
513,511,0:08:31.000,78.643,54.71,72.17699999999999,849.7610000000001,417.621,293.968,50.022
514,512,0:08:32.000,78.638,54.702,72.167,849.788,417.375,293.971,50.022
515,513,0:08:33.000,78.635,54.695,72.15899999999999,849.845,417.134,293.975,50.022
516,514,0:08:34.000,78.633,54.691,72.152,849.9010000000001,416.901,293.978,50.022
517,515,0:08:35.000,78.631,54.687,72.14399999999999,849.924,416.665,293.981,50.022
518,516,0:08:36.000,78.63,54.685,72.132,849.882,416.43199999999996,293.98400000000004,50.022
519,517,0:08:37.000,78.62899999999999,54.684,72.117,849.747,416.19599999999997,293.98900000000003,50.022
520,518,0:08:38.000,78.62899999999999,54.681999999999995,72.098,849.49,415.944,293.993,50.022
521,519,0:08:39.000,78.628,54.68,72.07300000000001,849.074,415.68800000000005,293.998,50.022
522,520,0:08:40.000,78.627,54.678999999999995,72.044,848.563,415.423,294.003,50.022
523,521,0:08:41.000,78.626,54.678000000000004,72.01100000000001,847.9780000000001,415.15,294.008,50.022
524,522,0:08:42.000,78.626,54.677,71.975,847.305,414.86699999999996,294.013,50.022
525,523,0:08:43.000,78.626,54.677,71.937,846.6360000000001,414.584,294.017,50.022
526,524,0:08:44.000,78.626,54.676,71.89699999999999,846.013,414.29900000000004,294.02099999999996,50.022
527,525,0:08:45.000,78.625,54.675,71.85600000000001,845.4639999999999,414.004,294.025,50.022
528,526,0:08:46.000,78.625,54.674,71.814,845.008,413.707,294.028,50.022
529,527,0:08:47.000,78.625,54.675,71.771,844.627,413.423,294.031,50.022
530,528,0:08:48.000,78.626,54.677,71.727,844.325,413.147,294.034,50.022
531,529,0:08:49.000,78.627,54.678999999999995,71.682,844.081,412.89,294.036,50.022
532,530,0:08:50.000,78.628,54.681999999999995,71.63600000000001,843.862,412.63300000000004,294.039,50.022
533,531,0:08:51.000,78.63,54.684,71.587,843.6410000000001,412.38300000000004,294.04200000000003,50.022
534,532,0:08:52.000,78.631,54.687,71.53699999999999,843.3789999999999,412.13699999999994,294.045,50.022
535,533,0:08:53.000,78.633,54.691,71.484,843.039,411.88800000000003,294.05,50.022
536,534,0:08:54.000,78.634,54.693999999999996,71.429,842.595,411.63,294.05400000000003,50.022
537,535,0:08:55.000,78.63600000000001,54.696999999999996,71.373,842.045,411.371,294.059,50.022
538,536,0:08:56.000,78.638,54.701,71.314,841.368,411.12199999999996,294.063,50.022
539,537,0:08:57.000,78.641,54.706,71.253,840.552,411.07300000000004,294.068,50.022
540,538,0:08:58.000,78.65,54.725,71.191,839.508,412.01599999999996,294.074,50.022
541,539,0:08:59.000,78.667,54.75899999999999,71.126,838.453,412.815,294.08,50.022
542,540,0:09:00.000,78.688,54.801,71.055,837.534,413.44599999999997,294.085,50.022
543,541,0:09:01.000,78.71,54.843999999999994,70.979,836.375,413.95099999999996,294.089,50.022
544,542,0:09:02.000,78.73,54.883,70.895,835.299,414.361,294.091,50.022
545,543,0:09:03.000,78.74600000000001,54.916000000000004,70.806,834.302,414.714,294.092,50.022
546,544,0:09:04.000,78.759,54.941,70.715,833.345,415.027,294.091,50.022
547,545,0:09:05.000,78.767,54.958,70.626,832.4630000000001,415.31699999999995,294.089,50.022
548,546,0:09:06.000,78.77199999999999,54.968,70.543,831.705,415.582,294.087,50.022
549,547,0:09:07.000,78.773,54.97,70.467,831.118,415.835,294.084,50.022
550,548,0:09:08.000,78.771,54.966,70.404,830.7339999999999,416.07199999999995,294.08099999999996,50.022
551,549,0:09:09.000,78.767,54.957,70.354,830.551,416.29699999999997,294.077,50.022
552,550,0:09:10.000,78.76,54.943999999999996,70.32,830.56,416.514,294.073,50.022
553,551,0:09:11.000,78.753,54.928999999999995,70.30199999999999,830.722,416.723,294.068,50.022
554,552,0:09:12.000,78.744,54.912,70.29899999999999,830.98,416.936,294.063,50.022
555,553,0:09:13.000,78.735,54.893,70.31,831.2660000000001,417.142,294.057,50.022
556,554,0:09:14.000,78.725,54.873999999999995,70.333,831.5269999999999,417.352,294.05,50.022
557,555,0:09:15.000,78.714,54.853,70.368,831.7339999999999,417.55,294.04400000000004,50.022
558,556,0:09:16.000,78.704,54.832,70.41,831.834,417.76199999999994,294.03700000000003,50.022
559,557,0:09:17.000,78.692,54.809,70.46,831.8439999999999,417.966,294.031,50.022
560,558,0:09:18.000,78.681,54.785,70.517,831.7760000000001,418.165,294.024,50.022
561,559,0:09:19.000,78.668,54.76,70.58,831.643,418.371,294.017,50.022
562,560,0:09:20.000,78.655,54.733999999999995,70.65,831.4730000000001,418.57,294.01099999999997,50.022
563,561,0:09:21.000,78.641,54.706,70.726,831.304,418.775,294.004,50.022
564,562,0:09:22.000,78.626,54.677,70.809,831.177,418.97900000000004,293.997,50.022
565,563,0:09:23.000,78.61,54.646,70.898,831.1160000000001,419.185,293.98900000000003,50.022
566,564,0:09:24.000,78.594,54.614,70.995,831.187,419.39,293.982,50.022
567,565,0:09:25.000,78.578,54.581,71.098,831.373,419.6,293.974,50.022
568,566,0:09:26.000,78.561,54.548,71.207,831.699,419.81300000000005,293.965,50.022
569,567,0:09:27.000,78.544,54.513999999999996,71.321,832.132,420.024,293.95599999999996,50.022
570,568,0:09:28.000,78.527,54.48,71.442,832.6410000000001,420.235,293.947,50.022
571,569,0:09:29.000,78.51,54.446000000000005,71.567,833.2389999999999,420.44599999999997,293.937,50.022
572,570,0:09:30.000,78.493,54.413000000000004,71.697,833.9,420.655,293.927,50.022
573,571,0:09:31.000,78.477,54.38,71.829,834.615,420.86699999999996,293.916,50.022
574,572,0:09:32.000,78.461,54.348,71.965,835.383,421.07599999999996,293.906,50.022
575,573,0:09:33.000,78.445,54.317,72.102,836.2139999999999,421.287,293.894,50.022
576,574,0:09:34.000,78.43,54.287,72.238,837.122,421.494,293.883,50.022
577,575,0:09:35.000,78.416,54.258,72.373,838.132,421.69699999999995,293.871,50.022
578,576,0:09:36.000,78.402,54.231,72.505,839.258,421.912,293.85900000000004,50.022
579,577,0:09:37.000,78.389,54.205,72.632,840.5089999999999,422.10900000000004,293.847,50.022
580,578,0:09:38.000,78.377,54.181999999999995,72.753,841.904,422.32099999999997,293.834,50.022
581,579,0:09:39.000,78.367,54.161,72.87100000000001,843.456,422.53,293.82,50.022
582,580,0:09:40.000,78.358,54.143,72.983,845.15,422.73699999999997,293.806,50.022
583,581,0:09:41.000,78.351,54.128,73.087,846.951,422.94300000000004,293.791,50.022
584,582,0:09:42.000,78.345,54.115,73.181,848.8939999999999,423.15,293.776,50.022
585,583,0:09:43.000,78.34100000000001,54.107,73.265,850.717,423.32599999999996,293.76099999999997,50.022
586,584,0:09:44.000,78.339,54.102,73.336,852.582,423.532,293.745,50.022
587,585,0:09:45.000,78.339,54.103,73.393,854.378,423.75300000000004,293.72900000000004,50.022
588,586,0:09:46.000,78.34100000000001,54.107,73.435,856.063,423.95,293.71299999999997,50.022
589,587,0:09:47.000,78.345,54.115,73.46,857.633,424.149,293.697,50.022
590,588,0:09:48.000,78.35,54.126000000000005,73.468,858.971,424.342,293.681,50.022
591,589,0:09:49.000,78.35600000000001,54.138999999999996,73.46,860.14,424.527,293.665,50.022
592,590,0:09:50.000,78.363,54.153,73.435,861.118,424.717,293.649,50.022
593,591,0:09:51.000,78.37100000000001,54.169,73.393,861.909,424.895,293.634,50.022
594,592,0:09:52.000,78.37899999999999,54.18600000000001,73.337,862.548,425.06699999999995,293.619,50.022
595,593,0:09:53.000,78.389,54.20399999999999,73.26899999999999,863.0360000000001,425.275,293.60400000000004,50.022
596,594,0:09:54.000,78.398,54.222,73.19,863.419,425.468,293.589,50.022
597,595,0:09:55.000,78.407,54.24,73.10300000000001,863.7180000000001,425.667,293.575,50.022
598,596,0:09:56.000,78.415,54.258,73.01,863.957,425.86800000000005,293.562,50.022
599,597,0:09:57.000,78.42399999999999,54.275,72.913,864.1560000000001,426.059,293.548,50.022
600,598,0:09:58.000,78.432,54.291000000000004,72.813,864.319,426.259,293.535,50.022
601,599,0:09:59.000,78.441,54.308,72.71300000000001,864.47,426.454,293.52099999999996,50.022
602,600,0:10:00.000,78.449,54.324,72.612,864.5930000000001,426.667,293.508,50.022
603,601,0:10:01.000,78.456,54.339,72.51100000000001,864.693,426.87800000000004,293.494,50.022
604,602,0:10:02.000,78.464,54.354,72.414,864.7739999999999,427.07599999999996,293.481,50.022
605,603,0:10:03.000,78.471,54.368,72.319,864.832,427.274,293.468,50.022
606,604,0:10:04.000,78.477,54.381,72.227,864.8480000000001,427.449,293.454,50.022
607,605,0:10:05.000,78.483,54.393,72.139,864.826,427.659,293.441,50.022
608,606,0:10:06.000,78.48899999999999,54.403,72.055,864.755,427.845,293.428,50.022
609,607,0:10:07.000,78.493,54.413000000000004,71.975,864.637,428.04,293.415,50.022
610,608,0:10:08.000,78.498,54.42100000000001,71.90100000000001,864.482,428.236,293.402,50.022
611,609,0:10:09.000,78.501,54.428000000000004,71.832,864.299,428.45099999999996,293.39,50.022
612,610,0:10:10.000,78.503,54.433,71.76899999999999,864.0939999999999,428.663,293.378,50.022
613,611,0:10:11.000,78.505,54.43600000000001,71.712,863.8810000000001,428.875,293.366,50.022
614,612,0:10:12.000,78.506,54.438,71.663,863.666,429.088,293.35400000000004,50.022
615,613,0:10:13.000,78.506,54.43899999999999,71.62,863.459,429.296,293.342,50.022
616,614,0:10:14.000,78.506,54.437,71.585,863.27,429.49699999999996,293.33,50.022
617,615,0:10:15.000,78.50399999999999,54.435,71.558,863.1080000000001,429.67400000000004,293.319,50.022
618,616,0:10:16.000,78.502,54.43,71.539,862.9830000000001,429.914,293.307,50.022
619,617,0:10:17.000,78.499,54.425,71.527,862.904,430.124,293.29400000000004,50.022
620,618,0:10:18.000,78.49600000000001,54.418,71.523,862.8739999999999,430.334,293.282,50.022
621,619,0:10:19.000,78.492,54.41,71.527,862.898,430.548,293.27,50.022
622,620,0:10:20.000,78.488,54.402,71.53699999999999,862.9830000000001,430.755,293.258,50.022
623,621,0:10:21.000,78.483,54.391999999999996,71.555,863.127,430.961,293.245,50.022
624,622,0:10:22.000,78.47800000000001,54.381,71.579,863.329,431.168,293.232,50.022
625,623,0:10:23.000,78.471,54.369,71.608,863.58,431.379,293.219,50.022
626,624,0:10:24.000,78.46600000000001,54.358000000000004,71.64399999999999,863.882,431.615,293.207,50.022
627,625,0:10:25.000,78.46,54.346000000000004,71.684,864.243,431.841,293.194,50.022
628,626,0:10:26.000,78.454,54.333999999999996,71.72800000000001,864.6510000000001,432.064,293.181,50.022
629,627,0:10:27.000,78.447,54.321000000000005,71.775,865.1089999999999,432.279,293.16900000000004,50.022
630,628,0:10:28.000,78.441,54.308,71.825,865.6080000000001,432.49699999999996,293.156,50.022
631,629,0:10:29.000,78.435,54.29600000000001,71.878,866.1419999999999,432.702,293.143,50.022
632,630,0:10:30.000,78.429,54.284,71.931,866.701,432.912,293.13,50.022
633,631,0:10:31.000,78.42399999999999,54.273999999999994,71.985,867.283,433.13199999999995,293.116,50.022
634,632,0:10:32.000,78.419,54.265,72.038,867.88,433.56800000000004,293.103,50.022
635,633,0:10:33.000,78.419,54.263999999999996,72.09100000000001,868.525,434.231,293.09,50.022
636,634,0:10:34.000,78.42,54.268,72.141,869.2239999999999,434.78,293.077,50.022
637,635,0:10:35.000,78.423,54.272,72.186,869.909,435.226,293.065,50.022
638,636,0:10:36.000,78.42399999999999,54.275,72.227,870.5939999999999,435.63800000000003,293.052,50.022
639,637,0:10:37.000,78.42399999999999,54.273999999999994,72.263,871.245,436.024,293.04,50.022
640,638,0:10:38.000,78.422,54.271,72.294,871.873,436.36800000000005,293.028,50.022
641,639,0:10:39.000,78.419,54.265,72.32300000000001,872.4789999999999,436.69599999999997,293.015,50.022
642,640,0:10:40.000,78.416,54.258,72.35,873.132,437.027,293.003,50.022
643,641,0:10:41.000,78.41199999999999,54.251000000000005,72.378,873.784,437.325,292.99,50.022
644,642,0:10:42.000,78.408,54.244,72.405,874.534,437.63,292.976,50.022
645,643,0:10:43.000,78.405,54.236999999999995,72.434,875.3969999999999,437.957,292.962,50.022
646,644,0:10:44.000,78.402,54.232,72.464,876.2539999999999,438.264,292.947,50.022
647,645,0:10:45.000,78.399,54.226000000000006,72.493,877.17,438.603,292.932,50.022
648,646,0:10:46.000,78.39699999999999,54.22,72.523,878.0830000000001,438.94599999999997,292.918,50.022
649,647,0:10:47.000,78.39399999999999,54.215,72.55199999999999,878.9689999999999,439.289,292.905,50.022
650,648,0:10:48.000,78.391,54.208999999999996,72.58,879.821,439.631,292.892,50.022
651,649,0:10:49.000,78.389,54.20399999999999,72.60600000000001,880.6460000000001,439.975,292.879,50.022
652,650,0:10:50.000,78.38600000000001,54.2,72.631,881.466,440.31300000000005,292.867,50.022
653,651,0:10:51.000,78.384,54.195,72.655,882.294,440.66900000000004,292.855,50.022
654,652,0:10:52.000,78.382,54.191,72.67699999999999,883.118,441.005,292.842,50.022
655,653,0:10:53.000,78.38,54.187,72.69800000000001,883.962,441.344,292.83099999999996,50.022
656,654,0:10:54.000,78.378,54.183,72.718,884.798,441.675,292.819,50.022
657,655,0:10:55.000,78.376,54.178999999999995,72.736,885.6339999999999,441.99300000000005,292.807,50.022
658,656,0:10:56.000,78.374,54.176,72.753,886.446,442.30699999999996,292.795,50.022
659,657,0:10:57.000,78.373,54.173,72.76899999999999,887.235,442.57599999999996,292.783,50.022
660,658,0:10:58.000,78.372,54.17100000000001,72.78399999999999,887.9960000000001,442.858,292.77099999999996,50.022
661,659,0:10:59.000,78.37100000000001,54.169,72.797,888.7189999999999,443.12199999999996,292.758,50.022
662,660,0:11:00.000,78.37100000000001,54.168,72.809,889.409,443.44300000000004,292.744,50.022
663,661,0:11:01.000,78.37100000000001,54.169,72.818,890.0139999999999,443.744,292.731,50.022
664,662,0:11:02.000,78.37100000000001,54.168,72.82600000000001,890.571,444.08,292.719,50.022
665,663,0:11:03.000,78.37100000000001,54.169,72.832,891.06,444.39300000000003,292.70599999999996,50.022
666,664,0:11:04.000,78.37100000000001,54.17,72.836,891.492,444.718,292.694,50.022
667,665,0:11:05.000,78.37100000000001,54.17,72.84,891.868,445.05800000000005,292.681,50.022
668,666,0:11:06.000,78.37100000000001,54.17,72.842,892.2080000000001,445.36800000000005,292.66900000000004,50.022
669,667,0:11:07.000,78.37,54.168,72.845,892.5169999999999,445.69699999999995,292.657,50.022
670,668,0:11:08.000,78.369,54.163999999999994,72.85,892.82,446.02,292.64599999999996,50.022
671,669,0:11:09.000,78.367,54.16,72.85600000000001,893.1260000000001,446.355,292.635,50.022
672,670,0:11:10.000,78.36399999999999,54.156000000000006,72.865,893.44,446.695,292.625,50.022
673,671,0:11:11.000,78.362,54.151,72.877,893.768,447.04699999999997,292.61400000000003,50.022
674,672,0:11:12.000,78.359,54.145,72.893,894.1160000000001,447.401,292.60400000000004,50.022
675,673,0:11:13.000,78.355,54.137,72.914,894.5010000000001,447.77,292.594,50.022
676,674,0:11:14.000,78.35,54.126999999999995,72.938,894.89,448.121,292.585,50.022
677,675,0:11:15.000,78.345,54.11600000000001,72.968,895.33,448.461,292.57599999999996,50.022
678,676,0:11:16.000,78.339,54.102,73.003,895.814,448.791,292.568,50.022
679,677,0:11:17.000,78.333,54.088,73.044,896.357,449.108,292.559,50.022
680,678,0:11:18.000,78.32600000000001,54.075,73.09100000000001,896.96,449.421,292.55,50.022
681,679,0:11:19.000,78.321,54.062,73.14399999999999,897.6289999999999,449.73,292.54,50.022
682,680,0:11:20.000,78.315,54.05,73.20100000000001,898.3539999999999,450.03,292.53,50.022
683,681,0:11:21.000,78.31,54.038000000000004,73.262,899.123,450.33099999999996,292.519,50.022
684,682,0:11:22.000,78.305,54.027,73.32600000000001,899.919,450.631,292.507,50.022
685,683,0:11:23.000,78.3,54.018,73.391,900.7080000000001,450.94199999999995,292.496,50.022
686,684,0:11:24.000,78.297,54.00899999999999,73.455,901.477,451.265,292.48400000000004,50.022
687,685,0:11:25.000,78.293,54.001000000000005,73.51899999999999,902.21,451.597,292.472,50.022
688,686,0:11:26.000,78.289,53.992,73.582,902.904,451.944,292.462,50.022
689,687,0:11:27.000,78.28399999999999,53.982,73.643,903.572,452.275,292.45099999999996,50.022
690,688,0:11:28.000,78.28,53.973,73.703,904.217,452.62,292.442,50.022
691,689,0:11:29.000,78.275,53.961999999999996,73.762,904.8610000000001,452.958,292.432,50.022
692,690,0:11:30.000,78.27,53.952,73.821,905.515,453.30699999999996,292.423,50.022
693,691,0:11:31.000,78.265,53.941,73.87899999999999,906.207,453.66,292.414,50.022
694,692,0:11:32.000,78.26100000000001,53.93,73.939,906.9119999999999,453.99300000000005,292.405,50.022
695,693,0:11:33.000,78.255,53.919,73.998,907.673,454.325,292.397,50.022
696,694,0:11:34.000,78.25,53.907,74.059,908.4689999999999,454.644,292.388,50.022
697,695,0:11:35.000,78.245,53.896,74.12,909.299,454.95300000000003,292.379,50.022
698,696,0:11:36.000,78.24,53.886,74.182,910.155,455.264,292.37,50.022
699,697,0:11:37.000,78.236,53.876999999999995,74.243,911.033,455.551,292.36,50.022
700,698,0:11:38.000,78.233,53.869,74.304,911.918,455.844,292.35,50.022
701,699,0:11:39.000,78.229,53.861999999999995,74.365,912.8,456.134,292.339,50.022
702,700,0:11:40.000,78.227,53.857,74.423,913.664,456.42900000000003,292.328,50.022
703,701,0:11:41.000,78.225,53.853,74.48,914.4989999999999,456.73699999999997,292.316,50.022
704,702,0:11:42.000,78.22399999999999,53.849,74.533,915.28,457.04699999999997,292.305,50.022
705,703,0:11:43.000,78.222,53.845,74.583,916.0089999999999,457.352,292.29400000000004,50.022
706,704,0:11:44.000,78.22,53.84,74.63,916.689,457.68300000000005,292.284,50.022
707,705,0:11:45.000,78.218,53.836000000000006,74.67399999999999,917.32,458.00199999999995,292.274,50.022
708,706,0:11:46.000,78.21600000000001,53.832,74.71600000000001,917.9169999999999,458.316,292.264,50.022
709,707,0:11:47.000,78.214,53.827,74.756,918.495,458.63199999999995,292.255,50.022
710,708,0:11:48.000,78.212,53.823,74.795,919.065,458.96,292.245,50.022
711,709,0:11:49.000,78.21,53.818999999999996,74.833,919.635,459.29699999999997,292.236,50.022
712,710,0:11:50.000,78.208,53.815,74.87100000000001,920.201,459.639,292.22700000000003,50.022
713,711,0:11:51.000,78.206,53.81,74.91,920.7610000000001,459.994,292.219,50.022
714,712,0:11:52.000,78.203,53.805,74.949,921.311,460.343,292.211,50.022
715,713,0:11:53.000,78.2,53.798,74.98899999999999,921.8489999999999,460.681,292.203,50.022
716,714,0:11:54.000,78.196,53.788999999999994,75.03,922.388,460.99800000000005,292.197,50.022
717,715,0:11:55.000,78.192,53.78,75.074,922.931,461.314,292.19,50.022
718,716,0:11:56.000,78.189,53.773,75.12100000000001,923.4989999999999,461.62699999999995,292.183,50.022
719,717,0:11:57.000,78.185,53.765,75.17,924.085,461.93300000000005,292.176,50.022
720,718,0:11:58.000,78.181,53.756,75.222,924.697,462.24199999999996,292.168,50.022
721,719,0:11:59.000,78.178,53.748000000000005,75.277,925.3330000000001,462.542,292.16,50.022
722,720,0:12:00.000,78.17399999999999,53.74,75.334,925.982,462.836,292.152,50.022
723,721,0:12:01.000,78.171,53.732,75.392,926.638,463.12699999999995,292.144,50.022
724,722,0:12:02.000,78.167,53.725,75.45100000000001,927.29,463.413,292.13599999999997,50.022
725,723,0:12:03.000,78.164,53.718,75.512,927.94,463.69,292.127,50.022
726,724,0:12:04.000,78.161,53.713,75.57300000000001,928.58,463.98699999999997,292.118,50.022
727,725,0:12:05.000,78.15899999999999,53.708,75.634,929.201,464.29,292.10900000000004,50.022
728,726,0:12:06.000,78.157,53.70399999999999,75.693,929.806,464.615,292.1,50.022
729,727,0:12:07.000,78.155,53.698,75.752,930.3810000000001,464.94599999999997,292.091,50.022
730,728,0:12:08.000,78.152,53.692,75.81,930.92,465.283,292.08299999999997,50.022
731,729,0:12:09.000,78.149,53.685,75.868,931.432,465.621,292.07599999999996,50.022
732,730,0:12:10.000,78.145,53.677,75.926,931.928,465.957,292.069,50.022
733,731,0:12:11.000,78.141,53.668,75.985,932.423,466.293,292.063,50.022
734,732,0:12:12.000,78.137,53.659,76.045,932.941,466.63300000000004,292.057,50.022
735,733,0:12:13.000,78.133,53.65,76.108,933.49,466.974,292.051,50.022
736,734,0:12:14.000,78.128,53.638999999999996,76.172,934.095,467.298,292.045,50.022
737,735,0:12:15.000,78.123,53.626999999999995,76.23899999999999,934.763,467.602,292.04,50.022
738,736,0:12:16.000,78.117,53.615,76.309,935.4939999999999,467.9,292.034,50.022
739,737,0:12:17.000,78.112,53.605,76.382,936.2810000000001,468.18699999999995,292.028,50.022
740,738,0:12:18.000,78.108,53.595,76.457,937.1310000000001,468.476,292.02099999999996,50.022
741,739,0:12:19.000,78.104,53.586999999999996,76.53399999999999,938.0310000000001,468.776,292.013,50.022
742,740,0:12:20.000,78.101,53.581,76.611,938.8839999999999,469.06,292.005,50.022
743,741,0:12:21.000,78.098,53.574,76.687,939.753,469.35,291.996,50.022
744,742,0:12:22.000,78.096,53.568000000000005,76.762,940.602,469.635,291.98900000000003,50.022
745,743,0:12:23.000,78.093,53.563,76.835,941.413,469.92699999999996,291.98,50.022
746,744,0:12:24.000,78.092,53.56,76.905,942.187,470.225,291.972,50.022
747,745,0:12:25.000,78.09,53.556000000000004,76.971,942.929,470.527,291.964,50.022
748,746,0:12:26.000,78.089,53.553000000000004,77.035,943.64,470.82599999999996,291.95599999999996,50.022
749,747,0:12:27.000,78.08800000000001,53.55,77.096,944.322,471.12,291.948,50.022
750,748,0:12:28.000,78.086,53.547,77.154,944.995,471.459,291.941,50.022
751,749,0:12:29.000,78.085,53.545,77.209,945.643,471.801,291.934,50.022
752,750,0:12:30.000,78.085,53.544,77.262,946.284,472.154,291.927,50.022
753,751,0:12:31.000,78.084,53.542,77.314,946.8939999999999,472.506,291.921,50.022
754,752,0:12:32.000,78.083,53.538999999999994,77.36399999999999,947.508,472.871,291.916,50.022
755,753,0:12:33.000,78.081,53.535,77.414,948.1160000000001,473.219,291.911,50.022
756,754,0:12:34.000,78.077,53.528,77.46300000000001,948.7339999999999,473.542,291.907,50.022
757,755,0:12:35.000,78.074,53.52,77.514,949.367,473.836,291.904,50.022
758,756,0:12:36.000,78.071,53.513000000000005,77.566,950.03,474.125,291.9,50.022
759,757,0:12:37.000,78.068,53.507,77.622,950.7439999999999,474.398,291.895,50.022
760,758,0:12:38.000,78.066,53.503,77.678,951.5060000000001,474.676,291.889,50.022
761,759,0:12:39.000,78.064,53.5,77.736,952.312,474.949,291.883,50.022
762,760,0:12:40.000,78.063,53.497,77.794,953.1389999999999,475.216,291.876,50.022
763,761,0:12:41.000,78.063,53.496,77.851,953.965,475.491,291.869,50.022
764,762,0:12:42.000,78.063,53.497,77.908,954.752,475.777,291.862,50.022
765,763,0:12:43.000,78.064,53.498999999999995,77.962,955.485,476.087,291.85400000000004,50.022
766,764,0:12:44.000,78.065,53.501999999999995,78.013,956.14,476.412,291.847,50.022
767,765,0:12:45.000,78.066,53.504,78.061,956.715,476.74300000000005,291.841,50.022
768,766,0:12:46.000,78.067,53.504,78.10600000000001,957.2310000000001,477.098,291.836,50.022
769,767,0:12:47.000,78.067,53.504,78.14699999999999,957.691,477.441,291.83099999999996,50.022
770,768,0:12:48.000,78.066,53.501999999999995,78.188,958.125,477.775,291.828,50.022
771,769,0:12:49.000,78.064,53.498000000000005,78.22800000000001,958.561,478.099,291.825,50.022
772,770,0:12:50.000,78.062,53.494,78.27,959.023,478.4,291.822,50.022
773,771,0:12:51.000,78.059,53.488,78.314,959.534,478.689,291.82,50.022
774,772,0:12:52.000,78.057,53.483000000000004,78.36,960.1160000000001,478.981,291.816,50.022
775,773,0:12:53.000,78.055,53.478,78.41,960.7339999999999,479.25,291.813,50.022
776,774,0:12:54.000,78.053,53.475,78.46300000000001,961.421,479.526,291.808,50.022
777,775,0:12:55.000,78.05199999999999,53.471000000000004,78.518,962.13,479.79699999999997,291.803,50.022
778,776,0:12:56.000,78.05,53.468,78.574,962.852,480.06699999999995,291.798,50.022
779,777,0:12:57.000,78.04899999999999,53.466,78.631,963.562,480.329,291.793,50.022
780,778,0:12:58.000,78.048,53.464,78.688,964.245,480.588,291.78700000000003,50.022
781,779,0:12:59.000,78.048,53.464,78.744,964.895,480.86,291.781,50.022
782,780,0:13:00.000,78.04899999999999,53.466,78.79899999999999,965.5060000000001,481.163,291.775,50.022
783,781,0:13:01.000,78.05,53.468,78.852,966.081,481.49199999999996,291.769,50.022
784,782,0:13:02.000,78.051,53.468999999999994,78.902,966.618,481.83099999999996,291.764,50.022
785,783,0:13:03.000,78.051,53.468999999999994,78.95100000000001,967.118,482.18,291.76,50.022
786,784,0:13:04.000,78.05,53.468,78.998,967.585,482.527,291.757,50.022
787,785,0:13:05.000,78.04899999999999,53.464,79.045,968.0319999999999,482.865,291.754,50.022
788,786,0:13:06.000,78.046,53.458999999999996,79.092,968.49,483.184,291.753,50.022
789,787,0:13:07.000,78.043,53.452,79.142,968.962,483.472,291.751,50.022
790,788,0:13:08.000,78.04,53.445,79.194,969.4989999999999,483.751,291.75,50.022
791,789,0:13:09.000,78.03699999999999,53.44,79.25,970.102,484.023,291.747,50.022
792,790,0:13:10.000,78.035,53.435,79.308,970.7860000000001,484.30300000000005,291.744,50.022
793,791,0:13:11.000,78.033,53.431000000000004,79.369,971.503,484.57599999999996,291.74,50.022
794,792,0:13:12.000,78.032,53.428000000000004,79.431,972.2589999999999,484.845,291.736,50.022
795,793,0:13:13.000,78.03,53.424,79.494,973.0219999999999,485.10699999999997,291.732,50.022
796,794,0:13:14.000,78.029,53.42100000000001,79.557,973.7639999999999,485.36300000000006,291.72700000000003,50.022
797,795,0:13:15.000,78.028,53.42,79.62,974.4780000000001,485.63199999999995,291.723,50.022
798,796,0:13:16.000,78.029,53.42100000000001,79.682,975.143,485.92,291.717,50.022
799,797,0:13:17.000,78.03,53.423,79.742,975.7760000000001,486.227,291.712,50.022
800,798,0:13:18.000,78.03,53.424,79.8,976.37,486.55199999999996,291.707,50.022
801,799,0:13:19.000,78.03,53.424,79.854,976.928,486.875,291.703,50.022
802,800,0:13:20.000,78.03,53.423,79.906,977.444,487.204,291.70099999999996,50.022
803,801,0:13:21.000,78.029,53.422,79.957,977.933,487.54400000000004,291.698,50.022
804,802,0:13:22.000,78.028,53.42,80.006,978.3989999999999,487.87199999999996,291.69599999999997,50.022
805,803,0:13:23.000,78.02600000000001,53.415,80.056,978.883,488.184,291.695,50.022
806,804,0:13:24.000,78.023,53.409,80.107,979.4010000000001,488.486,291.694,50.022
807,805,0:13:25.000,78.021,53.403999999999996,80.16,979.961,488.781,291.694,50.022
808,806,0:13:26.000,78.01899999999999,53.4,80.217,980.577,489.07099999999997,291.692,50.022
809,807,0:13:27.000,78.017,53.396,80.275,981.2460000000001,489.349,291.69,50.022
810,808,0:13:28.000,78.015,53.391000000000005,80.335,981.949,489.621,291.688,50.022
811,809,0:13:29.000,78.014,53.388000000000005,80.39699999999999,982.675,489.89,291.685,50.022
812,810,0:13:30.000,78.012,53.385,80.459,983.403,490.153,291.682,50.022
813,811,0:13:31.000,78.01100000000001,53.383,80.52199999999999,984.1160000000001,490.415,291.67900000000003,50.022
814,812,0:13:32.000,78.01,53.381,80.584,984.811,490.67,291.675,50.022
815,813,0:13:33.000,78.01,53.379,80.645,985.4789999999999,490.918,291.672,50.022
816,814,0:13:34.000,78.01,53.38,80.705,986.132,491.19300000000004,291.668,50.022
817,815,0:13:35.000,78.01100000000001,53.383,80.764,986.7539999999999,491.473,291.664,50.022
818,816,0:13:36.000,78.013,53.386,80.82,987.3489999999999,491.816,291.659,50.022
819,817,0:13:37.000,78.013,53.388000000000005,80.872,987.8969999999999,492.159,291.656,50.022
820,818,0:13:38.000,78.014,53.388000000000005,80.923,988.398,492.50300000000004,291.654,50.022
821,819,0:13:39.000,78.013,53.387,80.972,988.8610000000001,492.845,291.653,50.022
822,820,0:13:40.000,78.012,53.383,81.02,989.3,493.166,291.653,50.022
823,821,0:13:41.000,78.009,53.376999999999995,81.069,989.7439999999999,493.45599999999996,291.654,50.022
824,822,0:13:42.000,78.006,53.371,81.119,990.22,493.72,291.655,50.022
825,823,0:13:43.000,78.00399999999999,53.367,81.173,990.7610000000001,493.995,291.655,50.022
826,824,0:13:44.000,78.003,53.364,81.23,991.3710000000001,494.269,291.654,50.022
827,825,0:13:45.000,78.001,53.361000000000004,81.289,992.041,494.543,291.652,50.022
828,826,0:13:46.000,78.0,53.358000000000004,81.34899999999999,992.7660000000001,494.82,291.65,50.022
829,827,0:13:47.000,77.999,53.355,81.411,993.4739999999999,495.07300000000004,291.64799999999997,50.022
830,828,0:13:48.000,77.998,53.353,81.473,994.198,495.33099999999996,291.64599999999996,50.022
831,829,0:13:49.000,77.997,53.351000000000006,81.536,994.8489999999999,495.57800000000003,291.644,50.022
832,830,0:13:50.000,77.99600000000001,53.35,81.598,995.492,495.824,291.64099999999996,50.022
833,831,0:13:51.000,77.99600000000001,53.349,81.658,996.107,496.066,291.638,50.022
834,832,0:13:52.000,77.99600000000001,53.35,81.717,996.7,496.32300000000004,291.635,50.022
835,833,0:13:53.000,77.997,53.352,81.775,997.2739999999999,496.60699999999997,291.632,50.022
836,834,0:13:54.000,77.999,53.355,81.83,997.831,496.916,291.629,50.022
837,835,0:13:55.000,78.0,53.357,81.882,998.3480000000001,497.233,291.626,50.022
838,836,0:13:56.000,78.0,53.358000000000004,81.93299999999999,998.8330000000001,497.57099999999997,291.625,50.022
839,837,0:13:57.000,78.0,53.357,81.98200000000001,999.285,497.907,291.624,50.022
840,838,0:13:58.000,77.998,53.354,82.031,999.7130000000001,498.22,291.625,50.022
841,839,0:13:59.000,77.99600000000001,53.349,82.081,1000.1519999999999,498.509,291.626,50.022
842,840,0:14:00.000,77.993,53.343,82.133,1000.6260000000001,498.775,291.628,50.022
843,841,0:14:01.000,77.991,53.339,82.186,1001.1560000000001,499.032,291.628,50.022
844,842,0:14:02.000,77.99,53.335,82.243,1001.7539999999999,499.306,291.628,50.022
845,843,0:14:03.000,77.988,53.332,82.303,1002.421,499.566,291.627,50.022
846,844,0:14:04.000,77.987,53.32899999999999,82.36399999999999,1003.125,499.82199999999995,291.626,50.022
847,845,0:14:05.000,77.986,53.327,82.426,1003.85,500.07,291.625,50.022
848,846,0:14:06.000,77.985,53.326,82.48899999999999,1004.586,500.324,291.623,50.022
849,847,0:14:07.000,77.985,53.326,82.552,1005.2589999999999,500.56699999999995,291.621,50.022
850,848,0:14:08.000,77.985,53.325,82.61399999999999,1005.928,500.80699999999996,291.619,50.022
851,849,0:14:09.000,77.985,53.325,82.675,1006.585,501.05400000000003,291.617,50.022
852,850,0:14:10.000,77.986,53.327,82.73299999999999,1007.194,501.30800000000005,291.615,50.022
853,851,0:14:11.000,77.987,53.33,82.79,1007.788,501.591,291.612,50.022
854,852,0:14:12.000,77.98899999999999,53.333,82.84299999999999,1008.352,501.892,291.61,50.022
855,853,0:14:13.000,77.99,53.335,82.89399999999999,1008.883,502.20300000000003,291.608,50.022
856,854,0:14:14.000,77.99,53.336000000000006,82.94200000000001,1009.3810000000001,502.51599999999996,291.607,50.022
857,855,0:14:15.000,77.99,53.336999999999996,82.988,1009.8510000000001,502.832,291.607,50.022
858,856,0:14:16.000,77.99,53.336000000000006,83.035,1010.306,503.15,291.608,50.022
859,857,0:14:17.000,77.99,53.335,83.081,1010.78,503.815,291.60900000000004,50.022
860,858,0:14:18.000,77.994,53.343999999999994,83.12799999999999,1011.345,504.60900000000004,291.611,50.022
861,859,0:14:19.000,78.0,53.357,83.176,1011.9989999999999,505.108,291.612,50.022
862,860,0:14:20.000,78.005,53.37,83.22200000000001,1012.71,505.464,291.612,50.022
863,861,0:14:21.000,78.01,53.38,83.266,1013.447,505.811,291.61,50.022
864,862,0:14:22.000,78.013,53.388000000000005,83.30799999999999,1014.1339999999999,506.18300000000005,291.607,50.022
865,863,0:14:23.000,78.016,53.394,83.34899999999999,1014.7510000000001,506.56699999999995,291.603,50.022
866,864,0:14:24.000,78.01899999999999,53.398999999999994,83.38799999999999,1015.296,506.963,291.6,50.022
867,865,0:14:25.000,78.02,53.403,83.427,1015.7860000000001,507.371,291.597,50.022
868,866,0:14:26.000,78.021,53.403999999999996,83.46600000000001,1016.265,507.79,291.594,50.022
869,867,0:14:27.000,78.021,53.403,83.507,1016.7610000000001,508.20599999999996,291.593,50.022
870,868,0:14:28.000,78.01899999999999,53.4,83.55,1017.312,508.635,291.592,50.022
871,869,0:14:29.000,78.017,53.396,83.596,1017.9119999999999,509.065,291.592,50.022
872,870,0:14:30.000,78.015,53.39,83.648,1018.562,509.496,291.593,50.022
873,871,0:14:31.000,78.01100000000001,53.383,83.704,1019.2610000000001,509.918,291.593,50.022
874,872,0:14:32.000,78.007,53.373999999999995,83.766,1020.0060000000001,510.30400000000003,291.595,50.022
875,873,0:14:33.000,78.002,53.363,83.83200000000001,1020.799,510.68800000000005,291.596,50.022
876,874,0:14:34.000,77.998,53.353,83.905,1021.65,511.04699999999997,291.598,50.022
877,875,0:14:35.000,77.994,53.345,83.98200000000001,1022.581,511.42199999999997,291.598,50.022
878,876,0:14:36.000,77.992,53.339,84.06299999999999,1023.4889999999999,511.774,291.597,50.022
879,877,0:14:37.000,77.98899999999999,53.333999999999996,84.147,1024.474,512.131,291.596,50.022
880,878,0:14:38.000,77.987,53.32899999999999,84.23100000000001,1025.453,512.482,291.595,50.022
881,879,0:14:39.000,77.985,53.325,84.316,1026.414,512.832,291.593,50.022
882,880,0:14:40.000,77.984,53.323,84.40100000000001,1027.328,513.1990000000001,291.591,50.022
883,881,0:14:41.000,77.984,53.323,84.48200000000001,1028.188,513.586,291.58799999999997,50.022
884,882,0:14:42.000,77.984,53.324,84.56,1028.986,513.986,291.586,50.022
885,883,0:14:43.000,77.984,53.323,84.633,1029.7269999999999,514.401,291.584,50.022
886,884,0:14:44.000,77.984,53.321999999999996,84.704,1030.41,514.816,291.58299999999997,50.022
887,885,0:14:45.000,77.982,53.318999999999996,84.773,1031.075,515.244,291.58299999999997,50.022
888,886,0:14:46.000,77.98100000000001,53.316,84.84,1031.6989999999998,515.634,291.584,50.022
889,887,0:14:47.000,77.97800000000001,53.31100000000001,84.906,1032.326,516.0980000000001,291.585,50.022
890,888,0:14:48.000,77.976,53.305,84.97200000000001,1032.9189999999999,516.505,291.587,50.022
891,889,0:14:49.000,77.973,53.298,85.04,1033.552,516.899,291.589,50.022
892,890,0:14:50.000,77.969,53.288999999999994,85.11200000000001,1034.236,517.262,291.592,50.022
893,891,0:14:51.000,77.964,53.278999999999996,85.186,1035.018,517.626,291.594,50.022
894,892,0:14:52.000,77.96,53.271,85.264,1035.808,517.9580000000001,291.595,50.022
895,893,0:14:53.000,77.957,53.263999999999996,85.345,1036.683,518.289,291.596,50.022
896,894,0:14:54.000,77.954,53.258,85.428,1037.603,518.612,291.595,50.022
897,895,0:14:55.000,77.952,53.254,85.512,1038.542,518.95,291.594,50.022
898,896,0:14:56.000,77.952,53.251999999999995,85.596,1039.476,519.323,291.592,50.022
899,897,0:14:57.000,77.952,53.251999999999995,85.679,1040.373,519.6990000000001,291.589,50.022
900,898,0:14:58.000,77.95100000000001,53.251000000000005,85.76,1041.234,520.095,291.587,50.022
901,899,0:14:59.000,77.95100000000001,53.25,85.838,1042.002,520.485,291.586,50.022
902,900,0:15:00.000,77.95,53.248000000000005,85.914,1042.73,520.88,291.585,50.022
903,901,0:15:01.000,77.949,53.245,85.98700000000001,1043.412,521.28,291.585,50.022
904,902,0:15:02.000,77.947,53.242,86.059,1044.067,521.68,291.586,50.022
905,903,0:15:03.000,77.945,53.238,86.12899999999999,1044.721,522.0740000000001,291.586,50.022
906,904,0:15:04.000,77.943,53.233000000000004,86.2,1045.395,522.474,291.587,50.022
907,905,0:15:05.000,77.941,53.228,86.272,1046.1,522.879,291.589,50.022
908,906,0:15:06.000,77.938,53.222,86.346,1046.847,523.281,291.59,50.022
909,907,0:15:07.000,77.936,53.217,86.42,1047.624,523.677,291.592,50.022
910,908,0:15:08.000,77.933,53.21,86.49700000000001,1048.417,524.066,291.593,50.022
911,909,0:15:09.000,77.929,53.203,86.575,1049.237,524.436,291.595,50.022
912,910,0:15:10.000,77.926,53.196000000000005,86.655,1050.07,524.799,291.597,50.022
913,911,0:15:11.000,77.923,53.18899999999999,86.73700000000001,1050.92,525.133,291.599,50.022
914,912,0:15:12.000,77.92,53.183,86.821,1051.809,525.471,291.599,50.022
915,913,0:15:13.000,77.918,53.178000000000004,86.905,1052.719,525.793,291.6,50.022
916,914,0:15:14.000,77.917,53.175,86.99,1053.634,526.115,291.599,50.022
917,915,0:15:15.000,77.917,53.175,87.075,1054.553,526.466,291.597,50.022
918,916,0:15:16.000,77.917,53.175,87.15799999999999,1055.4589999999998,526.835,291.595,50.022
919,917,0:15:17.000,77.917,53.176,87.238,1056.299,527.201,291.594,50.022
920,918,0:15:18.000,77.917,53.175,87.315,1057.099,527.581,291.592,50.022
921,919,0:15:19.000,77.917,53.175,87.38799999999999,1057.845,527.96,291.592,50.022
922,920,0:15:20.000,77.916,53.174,87.459,1058.566,528.352,291.592,50.022
923,921,0:15:21.000,77.916,53.173,87.527,1059.212,528.729,291.592,50.022
924,922,0:15:22.000,77.915,53.17100000000001,87.595,1059.861,529.113,291.593,50.022
925,923,0:15:23.000,77.913,53.168,87.661,1060.521,529.491,291.593,50.022
926,924,0:15:24.000,77.911,53.163000000000004,87.728,1061.1989999999998,529.8530000000001,291.595,50.022
927,925,0:15:25.000,77.90899999999999,53.159,87.796,1061.9089999999999,530.202,291.596,50.022
928,926,0:15:26.000,77.907,53.155,87.866,1062.6580000000001,530.545,291.597,50.022
929,927,0:15:27.000,77.906,53.151,87.93700000000001,1063.441,530.881,291.597,50.022
930,928,0:15:28.000,77.904,53.148,88.01,1064.252,531.217,291.597,50.022
931,929,0:15:29.000,77.903,53.145,88.084,1065.0839999999998,531.539,291.597,50.022
932,930,0:15:30.000,77.902,53.143,88.15899999999999,1065.924,531.871,291.596,50.022
933,931,0:15:31.000,77.90100000000001,53.141000000000005,88.23299999999999,1066.756,532.201,291.595,50.022
934,932,0:15:32.000,77.90100000000001,53.14,88.307,1067.573,532.529,291.594,50.022
935,933,0:15:33.000,77.90100000000001,53.14,88.37899999999999,1068.382,532.852,291.592,50.022
936,934,0:15:34.000,77.90100000000001,53.14,88.45100000000001,1069.142,533.1669999999999,291.59,50.022
937,935,0:15:35.000,77.90100000000001,53.14,88.522,1069.893,533.482,291.589,50.022
938,936,0:15:36.000,77.90100000000001,53.14,88.59100000000001,1070.632,533.7919999999999,291.586,50.022
939,937,0:15:37.000,77.90100000000001,53.141000000000005,88.65799999999999,1071.361,534.1030000000001,291.584,50.022
940,938,0:15:38.000,77.90100000000001,53.141000000000005,88.723,1072.0819999999999,534.413,291.58099999999996,50.022
941,939,0:15:39.000,77.902,53.141999999999996,88.788,1072.813,534.73,291.579,50.022
942,940,0:15:40.000,77.902,53.144,88.84899999999999,1073.521,535.029,291.57599999999996,50.022
943,941,0:15:41.000,77.903,53.145,88.91,1074.22,535.331,291.572,50.022
944,942,0:15:42.000,77.904,53.146,88.97,1074.9180000000001,535.633,291.569,50.022
945,943,0:15:43.000,77.904,53.148,89.02799999999999,1075.607,535.942,291.565,50.022
946,944,0:15:44.000,77.905,53.15,89.084,1076.286,536.244,291.561,50.022
947,945,0:15:45.000,77.906,53.152,89.14,1076.958,536.556,291.557,50.022
948,946,0:15:46.000,77.907,53.155,89.195,1077.624,536.866,291.553,50.022
949,947,0:15:47.000,77.908,53.157,89.249,1078.2839999999999,537.1759999999999,291.54900000000004,50.022
950,948,0:15:48.000,77.90899999999999,53.159,89.302,1078.938,537.49,291.545,50.022
951,949,0:15:49.000,77.91,53.16,89.355,1079.59,537.802,291.541,50.022
952,950,0:15:50.000,77.911,53.162,89.40799999999999,1080.236,538.111,291.53700000000003,50.022
953,951,0:15:51.000,77.91199999999999,53.163999999999994,89.46,1080.883,538.42,291.533,50.022
954,952,0:15:52.000,77.91199999999999,53.166000000000004,89.512,1081.532,538.732,291.529,50.022
955,953,0:15:53.000,77.913,53.167,89.56299999999999,1082.1789999999999,539.039,291.525,50.022
956,954,0:15:54.000,77.914,53.169,89.615,1082.8339999999998,539.335,291.52,50.022
957,955,0:15:55.000,77.915,53.17100000000001,89.666,1083.498,539.651,291.51599999999996,50.022
958,956,0:15:56.000,77.916,53.173,89.71799999999999,1084.167,539.953,291.51099999999997,50.022
959,957,0:15:57.000,77.916,53.174,89.771,1084.826,540.248,291.507,50.022
960,958,0:15:58.000,77.917,53.176,89.822,1085.483,540.555,291.502,50.022
961,959,0:15:59.000,77.918,53.178999999999995,89.874,1086.138,540.856,291.497,50.022
962,960,0:16:00.000,77.919,53.181000000000004,89.926,1086.7910000000002,541.1519999999999,291.493,50.022
963,961,0:16:01.000,77.92,53.183,89.978,1087.443,541.448,291.488,50.022
964,962,0:16:02.000,77.922,53.18600000000001,90.02799999999999,1088.1019999999999,541.745,291.482,50.022
965,963,0:16:03.000,77.923,53.188,90.079,1088.733,542.014,291.47700000000003,50.022
966,964,0:16:04.000,77.92399999999999,53.191,90.13,1089.368,542.315,291.472,50.022
967,965,0:16:05.000,77.925,53.193999999999996,90.179,1089.995,542.607,291.466,50.022
968,966,0:16:06.000,77.926,53.196999999999996,90.227,1090.608,542.893,291.461,50.022
969,967,0:16:07.000,77.928,53.199,90.27600000000001,1091.225,543.178,291.455,50.022
970,968,0:16:08.000,77.929,53.202,90.324,1091.833,543.4590000000001,291.449,50.022
971,969,0:16:09.000,77.931,53.206,90.37200000000001,1092.435,543.744,291.443,50.022
972,970,0:16:10.000,77.932,53.208999999999996,90.419,1093.05,544.036,291.437,50.022
973,971,0:16:11.000,77.934,53.211999999999996,90.465,1093.617,544.323,291.431,50.022
974,972,0:16:12.000,77.935,53.215,90.51100000000001,1094.192,544.618,291.425,50.022
975,973,0:16:13.000,77.936,53.218,90.557,1094.757,544.913,291.41900000000004,50.022
976,974,0:16:14.000,77.937,53.22,90.603,1095.313,545.194,291.414,50.022
977,975,0:16:15.000,77.938,53.223,90.649,1095.883,545.497,291.408,50.022
978,976,0:16:16.000,77.939,53.224,90.694,1096.432,545.779,291.403,50.022
979,977,0:16:17.000,77.94,53.226000000000006,90.74,1096.995,546.063,291.397,50.022
980,978,0:16:18.000,77.941,53.228,90.787,1097.562,546.352,291.392,50.022
981,979,0:16:19.000,77.941,53.229,90.833,1098.139,546.6419999999999,291.38599999999997,50.022
982,980,0:16:20.000,77.942,53.231,90.881,1098.724,546.883,291.38,50.022
983,981,0:16:21.000,77.943,53.232,90.93,1099.313,547.196,291.375,50.022
984,982,0:16:22.000,77.944,53.233999999999995,90.979,1099.9089999999999,547.487,291.369,50.022
985,983,0:16:23.000,77.944,53.236000000000004,91.02799999999999,1100.5230000000001,547.76,291.36400000000003,50.022
986,984,0:16:24.000,77.945,53.238,91.07700000000001,1101.095,548.038,291.358,50.022
987,985,0:16:25.000,77.946,53.24,91.12700000000001,1101.6960000000001,548.314,291.35200000000003,50.022
988,986,0:16:26.000,77.947,53.24100000000001,91.177,1102.274,548.575,291.346,50.022
989,987,0:16:27.000,77.94800000000001,53.243,91.227,1102.855,548.847,291.341,50.022
990,988,0:16:28.000,77.949,53.245,91.27600000000001,1103.438,549.112,291.335,50.022
991,989,0:16:29.000,77.949,53.247,91.325,1104.016,549.374,291.329,50.022
992,990,0:16:30.000,77.95,53.248999999999995,91.374,1104.589,549.631,291.323,50.022
993,991,0:16:31.000,77.95100000000001,53.251000000000005,91.42299999999999,1105.161,549.89,291.317,50.022
994,992,0:16:32.000,77.952,53.253,91.471,1105.731,550.137,291.311,50.022
995,993,0:16:33.000,77.953,53.255,91.51899999999999,1106.297,550.396,291.305,50.022
996,994,0:16:34.000,77.954,53.257,91.56700000000001,1106.858,550.653,291.29900000000004,50.022
997,995,0:16:35.000,77.955,53.26,91.61399999999999,1107.413,550.909,291.29200000000003,50.022
998,996,0:16:36.000,77.956,53.262,91.66,1107.952,551.1659999999999,291.286,50.022
999,997,0:16:37.000,77.958,53.265,91.706,1108.493,551.434,291.28,50.022
1000,998,0:16:38.000,77.958,53.266999999999996,91.75200000000001,1109.016,551.698,291.275,50.022
1001,999,0:16:39.000,77.959,53.269,91.79700000000001,1109.5330000000001,551.964,291.269,50.022
1002,1000,0:16:40.000,77.96,53.27,91.84100000000001,1110.0430000000001,552.227,291.264,50.022
1003,1001,0:16:41.000,77.961,53.272,91.88600000000001,1110.555,552.488,291.259,50.022
1004,1002,0:16:42.000,77.961,53.273,91.931,1111.072,552.748,291.254,50.022
1005,1003,0:16:43.000,77.962,53.275,91.977,1111.605,553.0,291.249,50.022
1006,1004,0:16:44.000,77.96300000000001,53.276,92.023,1112.129,553.276,291.245,50.022
1007,1005,0:16:45.000,77.96300000000001,53.277,92.07,1112.6680000000001,553.521,291.24,50.022
1008,1006,0:16:46.000,77.964,53.278999999999996,92.117,1113.2089999999998,553.771,291.235,50.022
1009,1007,0:16:47.000,77.965,53.28,92.163,1113.76,554.0219999999999,291.231,50.022
1010,1008,0:16:48.000,77.965,53.282,92.21,1114.303,554.265,291.226,50.022
1011,1009,0:16:49.000,77.96600000000001,53.283,92.257,1114.844,554.511,291.222,50.022
1012,1010,0:16:50.000,77.967,53.285,92.304,1115.382,554.749,291.217,50.022
1013,1011,0:16:51.000,77.967,53.286,92.351,1115.9189999999999,554.991,291.21299999999997,50.022
1014,1012,0:16:52.000,77.968,53.288000000000004,92.398,1116.453,555.23,291.209,50.022
1015,1013,0:16:53.000,77.969,53.29,92.444,1116.983,555.462,291.204,50.022
1016,1014,0:16:54.000,77.97,53.292,92.491,1117.509,555.691,291.2,50.022
1017,1015,0:16:55.000,77.971,53.294,92.537,1118.031,555.919,291.19599999999997,50.022
1018,1016,0:16:56.000,77.972,53.29600000000001,92.583,1118.549,556.145,291.191,50.022
1019,1017,0:16:57.000,77.973,53.298,92.62799999999999,1119.063,556.364,291.187,50.022
1020,1018,0:16:58.000,77.97399999999999,53.3,92.67200000000001,1119.566,556.587,291.183,50.022
1021,1019,0:16:59.000,77.975,53.303000000000004,92.71600000000001,1120.06,556.814,291.178,50.022
1022,1020,0:17:00.000,77.976,53.306000000000004,92.759,1120.546,557.045,291.17400000000004,50.022
1023,1021,0:17:01.000,77.977,53.308,92.801,1121.022,557.279,291.17,50.022
1024,1022,0:17:02.000,77.979,53.31100000000001,92.84299999999999,1121.486,557.512,291.166,50.022
1025,1023,0:17:03.000,77.98,53.313,92.884,1121.9389999999999,557.749,291.163,50.022
1026,1024,0:17:04.000,77.98,53.315,92.925,1122.379,557.98,291.159,50.022
1027,1025,0:17:05.000,77.98100000000001,53.317,92.96600000000001,1122.8239999999998,558.22,291.157,50.022
1028,1026,0:17:06.000,77.982,53.318000000000005,93.007,1123.265,558.45,291.154,50.022
1029,1027,0:17:07.000,77.982,53.318999999999996,93.04799999999999,1123.704,558.675,291.151,50.022
1030,1028,0:17:08.000,77.983,53.321000000000005,93.09,1124.1589999999999,558.911,291.149,50.022
1031,1029,0:17:09.000,77.984,53.321999999999996,93.132,1124.618,559.138,291.14599999999996,50.022
1032,1030,0:17:10.000,77.984,53.323,93.175,1125.076,559.357,291.144,50.022
1033,1031,0:17:11.000,77.985,53.324,93.219,1125.539,559.58,291.142,50.022
1034,1032,0:17:12.000,77.985,53.325,93.26299999999999,1126.005,559.794,291.14,50.022
1035,1033,0:17:13.000,77.985,53.326,93.307,1126.4660000000001,560.021,291.138,50.022
1036,1034,0:17:14.000,77.986,53.327,93.351,1126.9189999999999,560.234,291.13599999999997,50.022
1037,1035,0:17:15.000,77.987,53.328,93.397,1127.378,560.446,291.134,50.022
1038,1036,0:17:16.000,77.987,53.33,93.44200000000001,1127.8239999999998,560.656,291.132,50.022
1039,1037,0:17:17.000,77.988,53.331,93.48700000000001,1128.267,560.856,291.13,50.022
